(module BatteryHolder_Keystone_1060_1x2032 (layer F.Cu) (tedit 5B74AF02)
  (descr http://www.keyelco.com/product-pdf.cfm?p=726)
  (tags "Keystone type 1060 coin cell retainer")
  (attr smd)
  (fp_text reference REF** (at -15 7) (layer F.SilkS)
    (effects (font (size 1 1) (thickness 0.15)))
  )
  (fp_text value BatteryHolder_Keystone_1060_1x2032 (at 0 2) (layer F.Fab)
    (effects (font (size 1 1) (thickness 0.15)))
  )
  (fp_text user %R (at 0 0) (layer F.Fab)
    (effects (font (size 1 1) (thickness 0.15)))
  )
  (fp_line (start -14.2 3.61) (end -11.11 3.61) (layer F.SilkS) (width 0.12))
  (fp_line (start -11.11 8.11) (end 11.11 8.11) (layer F.SilkS) (width 0.12))
  (fp_line (start 14.31 3.61) (end 11.11 3.61) (layer F.SilkS) (width 0.12))
  (fp_line (start 11.11 -3.61) (end 14.31 -3.61) (layer F.SilkS) (width 0.12))
  (fp_line (start -11.11 -8.11) (end 11.11 -8.11) (layer F.SilkS) (width 0.12))
  (fp_line (start -14.2 -3.61) (end -11.11 -3.61) (layer F.SilkS) (width 0.12))
  (fp_line (start 14.2 -3.5) (end 14.2 3.5) (layer F.Fab) (width 0.1))
  (fp_line (start 14.2 3.5) (end 11 3.5) (layer F.Fab) (width 0.1))
  (fp_line (start 11 -3.5) (end 14.2 -3.5) (layer F.Fab) (width 0.1))
  (fp_line (start -14.2 -3.5) (end -14.2 3.5) (layer F.Fab) (width 0.1))
  (fp_line (start -14.2 3.5) (end -11 3.5) (layer F.Fab) (width 0.1))
  (fp_line (start -11 8) (end 11 8) (layer F.Fab) (width 0.1))
  (fp_line (start -14.2 -3.5) (end -11 -3.5) (layer F.Fab) (width 0.1))
  (fp_line (start -11 -8) (end 11 -8) (layer F.Fab) (width 0.1))
  (fp_circle (center 0 0) (end 10 0) (layer Dwgs.User) (width 0.15))
  (fp_line (start -13 -7) (end -13 -5) (layer F.SilkS) (width 0.15))
  (fp_line (start -14 -6) (end -12 -6) (layer F.SilkS) (width 0.15))
  (fp_line (start -11.11 -8.11) (end -11.11 -3.61) (layer F.SilkS) (width 0.12))
  (fp_line (start 11.11 -8.11) (end 11.11 -3.61) (layer F.SilkS) (width 0.12))
  (fp_line (start 11.11 3.61) (end 11.11 8.11) (layer F.SilkS) (width 0.12))
  (fp_line (start -11 -3.5) (end -11 -8) (layer F.Fab) (width 0.1))
  (fp_line (start 11 8) (end 11 3.5) (layer F.Fab) (width 0.1))
  (fp_line (start -11 8) (end -11 3.5) (layer F.Fab) (width 0.1))
  (fp_line (start -11.11 3.61) (end -11.11 8.11) (layer F.SilkS) (width 0.12))
  (fp_line (start 11 -3.5) (end 11 -8) (layer F.Fab) (width 0.1))
  (fp_arc (start 0 0) (end 5.999999 -8.999999) (angle -67.4) (layer F.CrtYd) (width 0.05))
  (fp_arc (start 0 0) (end -5.999999 8.999999) (angle -67.4) (layer F.CrtYd) (width 0.05))
  (fp_line (start 6 -9) (end 12 -9) (layer F.CrtYd) (width 0.05))
  (fp_line (start 12 -9) (end 12 -5) (layer F.CrtYd) (width 0.05))
  (fp_line (start 12 -5) (end 17 -5) (layer F.CrtYd) (width 0.05))
  (fp_line (start 17 -5) (end 17 5) (layer F.CrtYd) (width 0.05))
  (fp_line (start 17 5) (end 12 5) (layer F.CrtYd) (width 0.05))
  (fp_line (start 12 5) (end 12 9) (layer F.CrtYd) (width 0.05))
  (fp_line (start 12 9) (end 6 9) (layer F.CrtYd) (width 0.05))
  (fp_line (start -6 9) (end -12 9) (layer F.CrtYd) (width 0.05))
  (fp_line (start -12 9) (end -12 5) (layer F.CrtYd) (width 0.05))
  (fp_line (start -12 5) (end -18 5) (layer F.CrtYd) (width 0.05))
  (fp_line (start -18 5) (end -18 -5) (layer F.CrtYd) (width 0.05))
  (fp_line (start -15 -9) (end -6 -9) (layer F.CrtYd) (width 0.05))
  (fp_line (start -18 -5) (end -15 -5) (layer F.CrtYd) (width 0.05))
  (fp_line (start -15 -5) (end -15 -9) (layer F.CrtYd) (width 0.05))
  (pad 1 smd rect (at -14.655 0) (size 3.59 4.61) (layers F.Cu F.Paste F.Mask))
  (pad 2 smd rect (at 14.655 0) (size 3.59 4.61) (layers F.Cu F.Paste F.Mask))
  (model ${KIPRJMOD}/models/Keystone/keystone-PN1060.STEP
    (offset (xyz -1.5 0 4.2))
    (scale (xyz 1 1 1))
    (rotate (xyz -90 0 0))
  )
)
