(module Conn_uSDcard (layer F.Cu) (tedit 5B7495E3)
  (fp_text reference REF** (at 0 1 180) (layer F.Fab)
    (effects (font (size 0.6 0.6) (thickness 0.1)))
  )
  (fp_text value VAL** (at 0 0 180) (layer F.Fab)
    (effects (font (size 0.6 0.5) (thickness 0.1)))
  )
  (fp_line (start -7.35 3.3) (end 0 3.3) (layer F.SilkS) (width 0.15))
  (fp_line (start 0 3.3) (end 1.35 3.35) (layer F.SilkS) (width 0.15))
  (fp_line (start 1.35 3.35) (end 2.5 3.5) (layer F.SilkS) (width 0.15))
  (fp_line (start 2.5 3.5) (end 3.6 3.7) (layer F.SilkS) (width 0.15))
  (fp_line (start 3.6 3.7) (end 4.65 4) (layer F.SilkS) (width 0.15))
  (fp_text user %R (at 2.1 -9.35 180) (layer Eco1.User)
    (effects (font (size 0.3 0.3) (thickness 0.03)))
  )
  (fp_line (start 2.8 -10) (end 2.8 -11.3) (layer F.SilkS) (width 0.15))
  (fp_line (start -7.35 -1.8) (end -7.35 -9) (layer F.SilkS) (width 0.15))
  (fp_line (start -7.35 1) (end -7.35 3.3) (layer F.SilkS) (width 0.15))
  (fp_line (start 4.65 4) (end 7.35 4) (layer F.SilkS) (width 0.15))
  (fp_line (start 7.35 4) (end 7.35 1) (layer F.SilkS) (width 0.15))
  (fp_line (start 7.35 -9) (end 7.35 -1.8) (layer F.SilkS) (width 0.15))
  (fp_line (start 7.35 -9.5) (end 6.85 -10) (layer F.Fab) (width 0.05))
  (fp_line (start 2.35 -9.4) (end 2.05 -9.4) (layer F.SilkS) (width 0.15))
  (fp_line (start 2.05 -9.4) (end 2.05 -9.1) (layer F.SilkS) (width 0.15))
  (fp_line (start 2.05 -9.1) (end 2.35 -9.1) (layer F.SilkS) (width 0.15))
  (fp_line (start 2.35 -9.1) (end 2.35 -9.4) (layer F.SilkS) (width 0.15))
  (fp_line (start -7.75 4.5) (end -7.75 1) (layer F.CrtYd) (width 0.05))
  (fp_line (start -7.75 1) (end -8.75 1) (layer F.CrtYd) (width 0.05))
  (fp_line (start -8.75 1) (end -8.75 -1.75) (layer F.CrtYd) (width 0.05))
  (fp_line (start -8.75 -1.75) (end -7.75 -1.75) (layer F.CrtYd) (width 0.05))
  (fp_line (start -7.75 -1.75) (end -7.75 -9) (layer F.CrtYd) (width 0.05))
  (fp_line (start -7.75 -9) (end -8.75 -9) (layer F.CrtYd) (width 0.05))
  (fp_line (start -8.75 -9) (end -8.75 -11) (layer F.CrtYd) (width 0.05))
  (fp_line (start -8.75 -11) (end -7.25 -11) (layer F.CrtYd) (width 0.05))
  (fp_line (start -7.25 -11) (end -7.25 -11.5) (layer F.CrtYd) (width 0.05))
  (fp_line (start -7.25 -11.5) (end 2.75 -11.5) (layer F.CrtYd) (width 0.05))
  (fp_line (start 2.75 -11.5) (end 2.75 -10.25) (layer F.CrtYd) (width 0.05))
  (fp_line (start 2.75 -10.25) (end 5.75 -10.25) (layer F.CrtYd) (width 0.05))
  (fp_line (start 5.75 -10.25) (end 5.75 -11) (layer F.CrtYd) (width 0.05))
  (fp_line (start 5.75 -11) (end 8 -11) (layer F.CrtYd) (width 0.05))
  (fp_line (start 8 -11) (end 8 -9) (layer F.CrtYd) (width 0.05))
  (fp_line (start 8 -9) (end 7.75 -9) (layer F.CrtYd) (width 0.05))
  (fp_line (start 7.75 -9) (end 7.75 -1.75) (layer F.CrtYd) (width 0.05))
  (fp_line (start 7.75 -1.75) (end 8.75 -1.75) (layer F.CrtYd) (width 0.05))
  (fp_line (start 8.75 -1.75) (end 8.75 1) (layer F.CrtYd) (width 0.05))
  (fp_line (start 8.75 1) (end 7.75 1) (layer F.CrtYd) (width 0.05))
  (fp_line (start 7.75 1) (end 7.75 4.5) (layer F.CrtYd) (width 0.05))
  (fp_line (start -9 4.5) (end -7 4.5) (layer Cmts.User) (width 0.05))
  (fp_line (start -7 4.5) (end -6 3.5) (layer Cmts.User) (width 0.05))
  (fp_line (start -6 3.5) (end 4 3.5) (layer Cmts.User) (width 0.05))
  (fp_line (start 4 3.5) (end 5 4.5) (layer Cmts.User) (width 0.05))
  (fp_line (start 5 4.5) (end 9 4.5) (layer Cmts.User) (width 0.05))
  (fp_line (start 0 3.3) (end 1.7 3.4) (layer F.Fab) (width 0.05))
  (fp_line (start 1.7 3.4) (end 3.5 3.7) (layer F.Fab) (width 0.05))
  (fp_line (start 3.5 3.7) (end 4.7 4) (layer F.Fab) (width 0.05))
  (fp_line (start 2.8 -10) (end 5.8 -10) (layer F.SilkS) (width 0.15))
  (fp_line (start -6.55 8.6) (end -6.55 3.3) (layer F.Fab) (width 0.05))
  (fp_line (start -5.85 9.3) (end 3.95 9.3) (layer F.Fab) (width 0.05))
  (fp_arc (start -5.85 8.6) (end -6.55 8.6) (angle -90) (layer F.Fab) (width 0.05))
  (fp_line (start 4.65 8.6) (end 4.65 4) (layer F.Fab) (width 0.05))
  (fp_arc (start 3.95 8.6) (end 4.65 8.6) (angle 90) (layer F.Fab) (width 0.05))
  (fp_line (start 4.65 4) (end 7.35 4) (layer F.Fab) (width 0.05))
  (fp_line (start -7.35 3.3) (end 0 3.3) (layer F.Fab) (width 0.05))
  (fp_line (start -7.35 -10) (end 7.35 -10) (layer F.Fab) (width 0.05))
  (fp_line (start 7.35 -10) (end 7.35 4) (layer F.Fab) (width 0.05))
  (fp_line (start -7.35 -10) (end -7.35 3.3) (layer F.Fab) (width 0.05))
  (pad 10 smd rect (at 7.75 -0.4) (size 1.2 2.2) (layers F.Cu F.Paste F.Mask))
  (pad 10 smd rect (at -7.75 -0.4) (size 1.2 2.2) (layers F.Cu F.Paste F.Mask))
  (pad 10 smd rect (at 6.85 -10) (size 1.6 1.4) (layers F.Cu F.Paste F.Mask))
  (pad 10 smd rect (at -7.75 -10) (size 1.2 1.4) (layers F.Cu F.Paste F.Mask))
  (pad 9 smd rect (at -6.6 -10.5) (size 0.7 1.6) (layers F.Cu F.Paste F.Mask))
  (pad 7 smd rect (at -4.4 -10.5) (size 0.7 1.6) (layers F.Cu F.Paste F.Mask))
  (pad 8 smd rect (at -5.5 -10.5) (size 0.7 1.6) (layers F.Cu F.Paste F.Mask))
  (pad 6 smd rect (at -3.3 -10.5) (size 0.7 1.6) (layers F.Cu F.Paste F.Mask))
  (pad 5 smd rect (at -2.2 -10.5) (size 0.7 1.6) (layers F.Cu F.Paste F.Mask))
  (pad 4 smd rect (at -1.1 -10.5) (size 0.7 1.6) (layers F.Cu F.Paste F.Mask))
  (pad 1 smd rect (at 2.2 -10.5) (size 0.7 1.6) (layers F.Cu F.Paste F.Mask))
  (pad 2 smd rect (at 1.1 -10.5) (size 0.7 1.6) (layers F.Cu F.Paste F.Mask))
  (pad "" np_thru_hole circle (at 3.05 0) (size 1 1) (drill 1) (layers *.Cu))
  (pad "" np_thru_hole circle (at -4.93 0) (size 1 1) (drill 1) (layers *.Cu))
  (pad 3 smd rect (at 0 -10.5) (size 0.7 1.6) (layers F.Cu F.Paste F.Mask))
)
