(module ESP-12E (layer F.Cu) (tedit 5B74DE38)
  (descr "Wi-Fi Module, http://wiki.ai-thinker.com/_media/esp8266/docs/aithinker_esp_12f_datasheet_en.pdf")
  (tags "Wi-Fi Module")
  (attr smd)
  (fp_text reference REF** (at -7 -13) (layer F.SilkS)
    (effects (font (size 1 1) (thickness 0.15)))
  )
  (fp_text value ESP-12E (at -0.06 -12.78) (layer F.Fab)
    (effects (font (size 1 1) (thickness 0.15)))
  )
  (fp_text user Antenna (at -0.06 -7 180) (layer Cmts.User)
    (effects (font (size 1 1) (thickness 0.15)))
  )
  (fp_text user "KEEP-OUT ZONE" (at 0.03 -9.55 180) (layer Cmts.User)
    (effects (font (size 1 1) (thickness 0.15)))
  )
  (fp_text user %R (at 0.49 -0.8) (layer F.Fab)
    (effects (font (size 1 1) (thickness 0.15)))
  )
  (fp_line (start -8 -12) (end 8 -12) (layer F.Fab) (width 0.12))
  (fp_line (start 8 -12) (end 8 12) (layer F.Fab) (width 0.12))
  (fp_line (start 8 12) (end -8 12) (layer F.Fab) (width 0.12))
  (fp_line (start -8 12) (end -8 -3) (layer F.Fab) (width 0.12))
  (fp_line (start -8 -3) (end -7.5 -3.5) (layer F.Fab) (width 0.12))
  (fp_line (start -7.5 -3.5) (end -8 -4) (layer F.Fab) (width 0.12))
  (fp_line (start -8 -4) (end -8 -12) (layer F.Fab) (width 0.12))
  (fp_line (start -9.05 -12.2) (end 9.05 -12.2) (layer F.CrtYd) (width 0.05))
  (fp_line (start 9.05 -12.2) (end 9.05 13.1) (layer F.CrtYd) (width 0.05))
  (fp_line (start 9.05 13.1) (end -9.05 13.1) (layer F.CrtYd) (width 0.05))
  (fp_line (start -9.05 13.1) (end -9.05 -12.2) (layer F.CrtYd) (width 0.05))
  (fp_line (start -8.12 -12.12) (end 8.12 -12.12) (layer F.SilkS) (width 0.12))
  (fp_line (start 8.12 -12.12) (end 8.12 -4.5) (layer F.SilkS) (width 0.12))
  (fp_line (start 8.12 11.5) (end 8.12 12.12) (layer F.SilkS) (width 0.12))
  (fp_line (start 8.12 12.12) (end 6 12.12) (layer F.SilkS) (width 0.12))
  (fp_line (start -6 12.12) (end -8.12 12.12) (layer F.SilkS) (width 0.12))
  (fp_line (start -8.12 12.12) (end -8.12 11.5) (layer F.SilkS) (width 0.12))
  (fp_line (start -8.12 -4.5) (end -8.12 -12.12) (layer F.SilkS) (width 0.12))
  (fp_line (start -8.12 -4.5) (end -8.73 -4.5) (layer F.SilkS) (width 0.12))
  (fp_line (start -8.12 -12.12) (end 8.12 -12.12) (layer Dwgs.User) (width 0.12))
  (fp_line (start 8.12 -12.12) (end 8.12 -4.8) (layer Dwgs.User) (width 0.12))
  (fp_line (start 8.12 -4.8) (end -8.12 -4.8) (layer Dwgs.User) (width 0.12))
  (fp_line (start -8.12 -4.8) (end -8.12 -12.12) (layer Dwgs.User) (width 0.12))
  (fp_line (start -8.12 -9.12) (end -5.12 -12.12) (layer Dwgs.User) (width 0.12))
  (fp_line (start -8.12 -6.12) (end -2.12 -12.12) (layer Dwgs.User) (width 0.12))
  (fp_line (start -6.44 -4.8) (end 0.88 -12.12) (layer Dwgs.User) (width 0.12))
  (fp_line (start -3.44 -4.8) (end 3.88 -12.12) (layer Dwgs.User) (width 0.12))
  (fp_line (start -0.44 -4.8) (end 6.88 -12.12) (layer Dwgs.User) (width 0.12))
  (fp_line (start 2.56 -4.8) (end 8.12 -10.36) (layer Dwgs.User) (width 0.12))
  (fp_line (start 5.56 -4.8) (end 8.12 -7.36) (layer Dwgs.User) (width 0.12))
  (pad 1 smd rect (at -7.6 -3.5) (size 2.5 1) (layers F.Cu F.Paste F.Mask))
  (pad 2 smd rect (at -7.6 -1.5) (size 2.5 1) (layers F.Cu F.Paste F.Mask))
  (pad 3 smd rect (at -7.6 0.5) (size 2.5 1) (layers F.Cu F.Paste F.Mask))
  (pad 4 smd rect (at -7.6 2.5) (size 2.5 1) (layers F.Cu F.Paste F.Mask))
  (pad 5 smd rect (at -7.6 4.5) (size 2.5 1) (layers F.Cu F.Paste F.Mask))
  (pad 6 smd rect (at -7.6 6.5) (size 2.5 1) (layers F.Cu F.Paste F.Mask))
  (pad 7 smd rect (at -7.6 8.5) (size 2.5 1) (layers F.Cu F.Paste F.Mask))
  (pad 8 smd rect (at -7.6 10.5) (size 2.5 1) (layers F.Cu F.Paste F.Mask))
  (pad 9 smd rect (at -5 12) (size 1 1.8) (layers F.Cu F.Paste F.Mask))
  (pad 10 smd rect (at -3 12) (size 1 1.8) (layers F.Cu F.Paste F.Mask))
  (pad 11 smd rect (at -1 12) (size 1 1.8) (layers F.Cu F.Paste F.Mask))
  (pad 12 smd rect (at 1 12) (size 1 1.8) (layers F.Cu F.Paste F.Mask))
  (pad 13 smd rect (at 3 12) (size 1 1.8) (layers F.Cu F.Paste F.Mask))
  (pad 14 smd rect (at 5 12) (size 1 1.8) (layers F.Cu F.Paste F.Mask))
  (pad 15 smd rect (at 7.6 10.5) (size 2.5 1) (layers F.Cu F.Paste F.Mask))
  (pad 16 smd rect (at 7.6 8.5) (size 2.5 1) (layers F.Cu F.Paste F.Mask))
  (pad 17 smd rect (at 7.6 6.5) (size 2.5 1) (layers F.Cu F.Paste F.Mask))
  (pad 18 smd rect (at 7.6 4.5) (size 2.5 1) (layers F.Cu F.Paste F.Mask))
  (pad 19 smd rect (at 7.6 2.5) (size 2.5 1) (layers F.Cu F.Paste F.Mask))
  (pad 20 smd rect (at 7.6 0.5) (size 2.5 1) (layers F.Cu F.Paste F.Mask))
  (pad 21 smd rect (at 7.6 -1.5) (size 2.5 1) (layers F.Cu F.Paste F.Mask))
  (pad 22 smd rect (at 7.6 -3.5) (size 2.5 1) (layers F.Cu F.Paste F.Mask))
  (model ${KIPRJMOD}/models/ESP/STEP_Wi-Fi_ESP-12-E.STEP
    (offset (xyz 0 0.1 0))
    (scale (xyz 1 1 1))
    (rotate (xyz 0 180 90))
  )
)
