(module Fuse_ClipSet_5x20mm (layer F.Cu) (tedit 5B7847EA)
  (fp_text reference REF** (at 3 -10) (layer F.SilkS)
    (effects (font (size 1 1) (thickness 0.15)))
  )
  (fp_text value Fuse_ClipSet_5x20mm (at 8.5 -8.5) (layer F.Fab)
    (effects (font (size 1 1) (thickness 0.15)))
  )
  (fp_line (start 0 -2.5) (end 20 -2.5) (layer F.SilkS) (width 0.5))
  (fp_line (start 5 -2.5) (end 5 2.5) (layer F.Fab) (width 0.1))
  (fp_line (start 20 2.5) (end 0 2.5) (layer F.SilkS) (width 0.5))
  (fp_line (start 0 2.5) (end 0 -2.5) (layer F.Fab) (width 0.1))
  (fp_line (start -3 3.5) (end -3 -3.5) (layer F.CrtYd) (width 0.05))
  (fp_line (start -3 -3.5) (end 23 -3.5) (layer F.CrtYd) (width 0.05))
  (fp_line (start 23 -3.5) (end 23 3.5) (layer F.CrtYd) (width 0.05))
  (fp_line (start 23 3.5) (end -3 3.5) (layer F.CrtYd) (width 0.05))
  (fp_arc (start 9 0) (end 8 0) (angle -180) (layer F.SilkS) (width 0.1))
  (fp_arc (start 11 0) (end 12 0) (angle -180) (layer F.SilkS) (width 0.1))
  (fp_line (start 12 0) (end 12.5 0) (layer F.SilkS) (width 0.1))
  (fp_line (start 8 0) (end 7.5 0) (layer F.SilkS) (width 0.1))
  (fp_line (start 15 -2.5) (end 15 2.5) (layer F.Fab) (width 0.1))
  (fp_line (start 20 -2.5) (end 20 2.5) (layer F.Fab) (width 0.1))
  (pad 1 thru_hole circle (at 0 0) (size 3 3) (drill 1.3) (layers *.Cu *.Mask))
  (pad 1 thru_hole circle (at 5 0) (size 3 3) (drill 1.3) (layers *.Cu *.Mask))
  (pad 2 thru_hole circle (at 15 0) (size 3 3) (drill 1.3) (layers *.Cu *.Mask))
  (pad 2 thru_hole circle (at 20 0) (size 3 3) (drill 1.3) (layers *.Cu *.Mask))
  (model ${KIPRJMOD}/models/Fuse/Fuse5x20.stp
    (offset (xyz 10 0 6))
    (scale (xyz 1 1 1))
    (rotate (xyz 0 0 0))
  )
  (model ${KIPRJMOD}/models/Fuse/FuseClip.stp
    (offset (xyz 10.5 0 0))
    (scale (xyz 1 1 1))
    (rotate (xyz 0 0 0))
  )
  (model ${KIPRJMOD}/models/Fuse/FuseClip.stp
    (offset (xyz 25.5 0 0))
    (scale (xyz 1 1 1))
    (rotate (xyz 0 0 0))
  )
)
