(module R2512_CurrentSense (layer F.Cu) (tedit 5B846320)
  (fp_text reference REF** (at 0 -3.4) (layer F.SilkS)
    (effects (font (size 1 1) (thickness 0.15)))
  )
  (fp_text value R2512_CurrentSense (at 3 4.1) (layer F.Fab)
    (effects (font (size 1 1) (thickness 0.15)))
  )
  (fp_line (start -5 2.5) (end -5 -2.5) (layer F.SilkS) (width 0.1))
  (fp_line (start 5 -2.5) (end 5 2.5) (layer F.SilkS) (width 0.1))
  (fp_line (start -3.15 -1.6) (end 3.15 -1.6) (layer F.Fab) (width 0.1))
  (fp_line (start 3.15 1.6) (end -3.15 1.6) (layer F.Fab) (width 0.1))
  (fp_line (start -5 -2.5) (end 5 -2.5) (layer F.SilkS) (width 0.1))
  (fp_line (start 5 2.5) (end -5 2.5) (layer F.SilkS) (width 0.1))
  (fp_line (start -5.2 -2.7) (end 5.2 -2.7) (layer F.CrtYd) (width 0.005))
  (fp_line (start 5.2 -2.7) (end 5.2 2.7) (layer F.CrtYd) (width 0.005))
  (fp_line (start 5.2 2.7) (end -5.2 2.7) (layer F.CrtYd) (width 0.005))
  (fp_line (start -5.2 2.7) (end -5.2 -2.7) (layer F.CrtYd) (width 0.005))
  (fp_text user %R (at 0 0) (layer F.Fab)
    (effects (font (size 1 1) (thickness 0.15)))
  )
  (pad 4 smd rect (at 2.5 0) (size 3.4 0.6) (layers F.Cu F.Paste F.Mask))
  (pad 3 smd rect (at -2.5 0) (size 3.4 0.6) (layers F.Cu F.Paste F.Mask))
  (pad 2 smd rect (at 2.5 1.4) (size 3.4 1.2) (layers F.Cu F.Paste F.Mask))
  (pad 1 smd rect (at -2.5 1.4) (size 3.4 1.2) (layers F.Cu F.Paste F.Mask))
  (pad 2 smd rect (at 2.5 -1.4) (size 3.4 1.2) (layers F.Cu F.Paste F.Mask))
  (pad 1 smd rect (at -2.5 -1.4) (size 3.4 1.2) (layers F.Cu F.Paste F.Mask))
  (model ${KISYS3DMOD}/Resistor_SMD.3dshapes/R_2512_6332Metric.wrl
    (at (xyz 0 0 0))
    (scale (xyz 1 1 1))
    (rotate (xyz 0 0 0))
  )
)
