M48
;DRILL file {KiCad 5.0.0-fee4fd1~66~ubuntu18.04.1} date Thu Aug 30 20:16:08 2018
;FORMAT={-:-/ absolute / inch / decimal}
FMAT,2
INCH,TZ
T1C0.0157
T2C0.0394
T3C0.0402
T4C0.0433
T5C0.0472
T6C0.0512
T7C0.1260
T8C0.0394
T9C0.0433
%
G90
G05
M72
T1
X4.3307Y-1.874
X4.3307Y-3.6614
X4.3386Y-3.7874
X4.3858Y-3.8346
X4.3937Y-1.2992
X4.3937Y-3.4409
X4.4094Y-1.0236
X4.4094Y-1.1811
X4.4488Y-0.8661
X4.4557Y-2.2047
X4.4557Y-2.1575
X4.4567Y-2.4252
X4.4567Y-2.622
X4.4646Y-2.937
X4.4646Y-3.1339
X4.4646Y-3.0394
X4.4646Y-3.2362
X4.4646Y-3.8031
X4.5394Y-2.0512
X4.5433Y-4.126
X4.5433Y-3.8031
X4.5433Y-4.2835
X4.5532Y-2.3701
X4.5669Y-2.7874
X4.5669Y-3.3386
X4.5748Y-1.7638
X4.5827Y-2.2913
X4.5984Y-3.8031
X4.6033Y-2.3307
X4.6063Y-2.0866
X4.6063Y-2.0472
X4.6142Y-2.2598
X4.621Y-3.7764
X4.6526Y-3.7874
X4.6535Y-2.2283
X4.6772Y-2.2776
X4.6772Y-4.126
X4.7087Y-2.2037
X4.7244Y-1.2992
X4.7323Y-2.7244
X4.7333Y-2.937
X4.738Y-2.3467
X4.7402Y-2.4331
X4.7409Y-2.3818
X4.7795Y-2.5118
X4.7874Y-2.5669
X4.7895Y-2.4028
X4.7953Y-1.5984
X4.7953Y-1.6772
X4.811Y-3.748
X4.8239Y-2.4032
X4.8425Y-0.8661
X4.8425Y-2.622
X4.8425Y-3.189
X4.8586Y-3.7517
X4.8819Y-4.126
X4.9055Y-3.7638
X4.9213Y-2.4016
X4.9528Y-4.1575
X4.9528Y-4.2835
X4.9764Y-3.7165
X4.9764Y-3.9843
X4.9921Y-4.2598
X5.0797Y-1.1407
X5.0797Y-1.2195
X5.0797Y-1.2982
X5.0797Y-1.377
X5.0797Y-1.4557
X5.126Y-2.8819
X5.1339Y-1.9213
X5.1339Y-2.0787
X5.1339Y-2.6772
X5.1585Y-1.2908
X5.1585Y-1.4557
X5.1811Y-1.7559
X5.1811Y-1.9665
X5.189Y-2.3622
X5.189Y-2.0472
X5.2047Y-2.3228
X5.2126Y-2.2835
X5.2362Y-2.0315
X5.2372Y-1.4557
X5.2441Y-2.2677
X5.2667Y-1.1908
X5.2667Y-1.249
X5.2667Y-1.4163
X5.2668Y-1.1101
X5.2913Y-1.685
X5.2913Y-2.252
X5.2935Y-1.2908
X5.3268Y-1.8228
X5.3268Y-1.9518
X5.3543Y-2.0433
X5.4567Y-2.4567
X5.4724Y-4.1693
X5.4882Y-4.0433
X5.5039Y-3.3701
X5.5108Y-2.4026
X5.5394Y-1.9528
X5.5394Y-1.8189
X5.5433Y-2.3051
X5.5748Y-2.252
X5.5748Y-2.3307
X5.5906Y-4.126
X5.6024Y-1.1496
X5.6024Y-1.8189
X5.6024Y-1.9213
X5.6181Y-2.3156
X5.6378Y-2.2126
X5.6378Y-2.2677
X5.6535Y-2.1654
X5.6654Y-2.3819
X5.6693Y-2.5591
X5.6703Y-0.7864
X5.6703Y-0.9045
X5.6772Y-3.3071
X5.685Y-2.189
X5.7244Y-1.9213
X5.7244Y-2.1732
X5.748Y-1.6929
X5.748Y-1.7717
X5.749Y-1.4557
X5.7874Y-2.1181
X5.7874Y-2.4803
X5.8031Y-2.9213
X5.8043Y-1.874
X5.8278Y-1.1407
X5.8278Y-1.2195
X5.8278Y-1.2982
X5.8278Y-1.377
X5.8278Y-1.4557
X5.8425Y-3.2126
X5.8425Y-3.5591
X5.8583Y-2.0551
X5.878Y-2.185
X5.9213Y-3.5591
X6.0157Y-4.1102
X6.0236Y-2.0079
X6.0394Y-3.5591
X6.0945Y-1.874
X6.1024Y-1.9291
X6.1024Y-3.7874
X6.1181Y-3.5591
X6.1417Y-2.0866
X6.189Y-4.1417
X6.1969Y-2.8661
X6.1969Y-2.9528
X6.1969Y-3.3543
X6.2126Y-1.2913
X6.2175Y-1.4016
X6.2205Y-2.0079
X6.2441Y-1.7244
X6.2441Y-1.2014
X6.2441Y-1.3386
X6.2799Y-1.6335
X6.2835Y-2.9213
X6.2913Y-0.8425
X6.2913Y-0.9449
X6.2913Y-1.0472
X6.3583Y-3.2677
X6.3622Y-1.2913
X6.3622Y-1.4016
X6.3701Y-2.378
X6.4016Y-2.1654
X6.4094Y-3.748
X6.4173Y-2.6772
X6.4173Y-2.8346
X6.4173Y-4.1417
X6.4567Y-1.937
X6.4567Y-1.3386
X6.4961Y-3.5039
X6.5039Y-4.1417
X6.5354Y-1.3386
X6.5354Y-3.5433
X6.5512Y-2.378
X6.5669Y-2.7323
X6.6142Y-2.9213
X6.6535Y-3.5039
X6.6772Y-2.
X6.6929Y-3.5433
X6.7638Y-2.3386
X6.7638Y-3.0315
X6.7874Y-0.8228
X6.811Y-1.811
X6.811Y-1.8898
X6.811Y-3.4646
X6.811Y-3.5039
X6.811Y-3.5433
X6.811Y-3.6614
X6.874Y-3.2283
X6.8899Y-3.26
X6.9291Y-1.4173
X6.9291Y-1.8504
X6.9291Y-2.2835
X6.9291Y-2.7165
X6.9291Y-3.7598
X7.126Y-0.8189
X7.126Y-3.2283
X7.126Y-3.622
T2
X4.2126Y-2.937
X4.2126Y-3.037
X4.2126Y-3.137
X4.2126Y-3.237
X4.2126Y-3.337
X4.2126Y-3.437
X4.8583Y-1.0417
X4.8583Y-1.1417
X6.0551Y-0.8457
X6.0551Y-0.9457
X6.0551Y-1.0457
X6.0551Y-1.1457
X6.0551Y-1.2457
X6.0551Y-1.3457
X4.2126Y-2.3228
X4.2126Y-2.4228
X4.2126Y-2.5228
X4.2126Y-2.6228
X4.2126Y-2.7228
T3
X7.3197Y-1.0236
X7.4197Y-1.0236
X7.5197Y-1.0236
X6.8654Y-1.0236
X6.9654Y-1.0236
X7.0654Y-1.0236
X7.1654Y-1.0236
T4
X6.0236Y-4.3622
X6.0236Y-4.5394
X6.2795Y-4.3622
X6.2795Y-4.5394
X7.874Y-1.378
X7.874Y-1.478
X7.874Y-1.578
X7.874Y-1.811
X7.874Y-1.911
X7.874Y-2.011
X7.874Y-2.6772
X7.874Y-2.7772
X7.874Y-2.8772
X7.874Y-2.2441
X7.874Y-2.3441
X7.874Y-2.4441
X6.4173Y-4.3622
X6.4173Y-4.5394
X6.6732Y-4.3622
X6.6732Y-4.5394
T5
X7.126Y-2.011
X7.426Y-2.011
X6.0811Y-3.8976
X6.1811Y-3.8976
X5.3874Y-3.8976
X5.4874Y-3.8976
X5.5874Y-3.8976
X5.6874Y-3.8976
X5.7874Y-3.8976
X4.5157Y-0.7795
X4.7756Y-0.7795
X7.126Y-1.578
X7.426Y-1.578
X7.126Y-2.4441
X7.426Y-2.4441
X7.126Y-2.8772
X7.426Y-2.8772
X5.3031Y-0.7756
X5.563Y-0.7756
T6
X7.6772Y-3.3071
X7.6772Y-3.5039
X7.6772Y-3.8976
X7.6772Y-4.0945
T7
X7.4016Y-4.3701
X4.252Y-4.4488
X7.7953Y-4.4488
X7.7953Y-0.9055
X4.252Y-0.9055
X7.0079Y-4.3701
T8
X4.6083Y-4.4606
X4.9232Y-4.4606
T9
X6.9654Y-1.1087
T0
M30
