ISO-10303-21;
HEADER;
FILE_DESCRIPTION (( 'STEP AP214' ),
    '1' );
FILE_NAME ('alsrobot-Fuse 1812.STEP',
    '2016-05-11T05:06:39',
    ( 'Windows User' ),
    ( '' ),
    'SwSTEP 2.0',
    'SolidWorks 2016',
    '' );
FILE_SCHEMA (( 'AUTOMOTIVE_DESIGN' ));
ENDSEC;

DATA;
#1 = EDGE_CURVE ( 'NONE', #665, #105, #657, .T. ) ;
#2 = CARTESIAN_POINT ( 'NONE',  ( -1.866561508921168500, -0.07893153271785249800, 1.000000000000000000 ) ) ;
#3 = VECTOR ( 'NONE', #580, 1000.000000000000000 ) ;
#4 = PLANE ( 'NONE',  #498 ) ;
#5 = LINE ( 'NONE', #551, #946 ) ;
#6 = CARTESIAN_POINT ( 'NONE',  ( 2.369999999999999700, -0.5000000000000013300, 1.530757942277971600E-017 ) ) ;
#7 = EDGE_CURVE ( 'NONE', #857, #246, #741, .T. ) ;
#8 =( NAMED_UNIT ( * ) PLANE_ANGLE_UNIT ( ) SI_UNIT ( $, .RADIAN. ) );
#9 = ADVANCED_FACE ( 'NONE', ( #680 ), #721, .F. ) ;
#10 = LINE ( 'NONE', #770, #836 ) ;
#11 = VECTOR ( 'NONE', #767, 1000.000000000000000 ) ;
#12 = CARTESIAN_POINT ( 'NONE',  ( 2.369999999999999700, 1.704999999999999800, 1.000000000000000000 ) ) ;
#13 = DIRECTION ( 'NONE',  ( -1.000000000000000000, -0.0000000000000000000, -0.0000000000000000000 ) ) ;
#14 = UNCERTAINTY_MEASURE_WITH_UNIT (LENGTH_MEASURE( 1.000000000000000100E-005 ), #962, 'distance_accuracy_value', 'NONE');
#15 = DIRECTION ( 'NONE',  ( 0.0000000000000000000, -1.000000000000000000, -0.0000000000000000000 ) ) ;
#16 = EDGE_CURVE ( 'NONE', #686, #405, #848, .T. ) ;
#17 = CARTESIAN_POINT ( 'NONE',  ( -1.624999999999999800, -1.705000000000000300, -2.541098841762901000E-017 ) ) ;
#18 = CARTESIAN_POINT ( 'NONE',  ( -2.365000000000000700, 1.704999999999999800, 1.000000000000000000 ) ) ;
#19 = LINE ( 'NONE', #500, #823 ) ;
#20 = CARTESIAN_POINT ( 'NONE',  ( -1.625000000000000400, 1.704999999999999800, 0.03499999999999987800 ) ) ;
#21 = VECTOR ( 'NONE', #568, 1000.000000000000000 ) ;
#22 = DIRECTION ( 'NONE',  ( -0.0000000000000000000, -1.000000000000000000, 6.123031769111886300E-017 ) ) ;
#23 = ADVANCED_FACE ( 'NONE', ( #618 ), #134, .F. ) ;
#24 = STYLED_ITEM ( 'NONE', ( #493 ), #832 ) ;
#25 = SURFACE_SIDE_STYLE ('',( #585 ) ) ;
#26 = CARTESIAN_POINT ( 'NONE',  ( -1.625000000000000400, 1.704999999999999400, 0.03500000000000009400 ) ) ;
#27 = DIRECTION ( 'NONE',  ( -0.0000000000000000000, 0.0000000000000000000, -1.000000000000000000 ) ) ;
#28 = DIRECTION ( 'NONE',  ( 0.0000000000000000000, -0.0000000000000000000, -1.000000000000000000 ) ) ;
#29 = PRESENTATION_LAYER_ASSIGNMENT (  '', '', ( #650 ) ) ;
#30 = CARTESIAN_POINT ( 'NONE',  ( -1.624999999999999800, -1.740000000000000200, 2.566577592816310700E-018 ) ) ;
#31 = CARTESIAN_POINT ( 'NONE',  ( -1.862148249456242200, -0.1316462804460861200, 0.0000000000000000000 ) ) ;
#32 = PLANE ( 'NONE',  #276 ) ;
#33 = VECTOR ( 'NONE', #617, 1000.000000000000000 ) ;
#34 = UNCERTAINTY_MEASURE_WITH_UNIT (LENGTH_MEASURE( 1.000000000000000100E-005 ), #687, 'distance_accuracy_value', 'NONE');
#35 = CARTESIAN_POINT ( 'NONE',  ( -1.916342139637569500, -0.2624819051196032900, -0.0000000000000000000 ) ) ;
#36 = DIRECTION ( 'NONE',  ( 1.000000000000000000, -0.0000000000000000000, 0.0000000000000000000 ) ) ;
#37 = SURFACE_SIDE_STYLE ('',( #874 ) ) ;
#38 = CLOSED_SHELL ( 'NONE', ( #524, #611, #694, #140, #23, #565, #174, #386, #542, #449, #461, #68, #399, #854, #832, #889, #321, #826, #537, #81, #849, #9, #776, #914 ) ) ;
#39 =( NAMED_UNIT ( * ) PLANE_ANGLE_UNIT ( ) SI_UNIT ( $, .RADIAN. ) );
#40 = DIRECTION ( 'NONE',  ( 0.0000000000000000000, 1.000000000000000000, -6.123031769111886300E-017 ) ) ;
#41 = CARTESIAN_POINT ( 'NONE',  ( -2.240181575858968700, 0.4874053424165169000, 0.9999999999999997800 ) ) ;
#42 = VECTOR ( 'NONE', #620, 1000.000000000000000 ) ;
#43 =( GEOMETRIC_REPRESENTATION_CONTEXT ( 3 ) GLOBAL_UNCERTAINTY_ASSIGNED_CONTEXT ( ( #289 ) ) GLOBAL_UNIT_ASSIGNED_CONTEXT ( ( #221, #803, #227 ) ) REPRESENTATION_CONTEXT ( 'NONE', 'WORKASPACE' ) );
#44 = LINE ( 'NONE', #504, #445 ) ;
#45 = FILL_AREA_STYLE ('',( #954 ) ) ;
#46 = VECTOR ( 'NONE', #96, 1000.000000000000000 ) ;
#47 = CARTESIAN_POINT ( 'NONE',  ( 2.338298805147538400, -0.5000000000000014400, 0.9999999999999997800 ) ) ;
#48 = B_SPLINE_CURVE_WITH_KNOTS ( 'NONE', 3,
 ( #532, #369, #64, #41, #417, #114, #495, #746, #714, #671, #860, #443, #344, #645, #275, #348 ),
 .UNSPECIFIED., .F., .F.,
 ( 4, 1, 2, 2, 2, 1, 2, 2, 4 ),
 ( 0.0000000000000000000, 0.1249999999999995300, 0.1874999999999992500, 0.2499999999999989500, 0.4999999999999992200, 0.6249999999999993300, 0.6874999999999994400, 0.7499999999999994400, 1.000000000000000000 ),
 .UNSPECIFIED. ) ;
#49 = CARTESIAN_POINT ( 'NONE',  ( 1.885312679571088400, 0.1239929872951215700, 0.9999999999999997800 ) ) ;
#50 = AXIS2_PLACEMENT_3D ( 'NONE', #377, #451, #601 ) ;
#51 =( NAMED_UNIT ( * ) PLANE_ANGLE_UNIT ( ) SI_UNIT ( $, .RADIAN. ) );
#52 = CARTESIAN_POINT ( 'NONE',  ( -2.300878226277666400, -0.5028517505437575300, 1.000000000000000000 ) ) ;
#53 = DIRECTION ( 'NONE',  ( 0.0000000000000000000, 6.123031769111886300E-017, 1.000000000000000000 ) ) ;
#54 = EDGE_CURVE ( 'NONE', #367, #594, #351, .T. ) ;
#55 = CARTESIAN_POINT ( 'NONE',  ( -2.364999999999999800, 1.704999999999999600, 1.000000000000000000 ) ) ;
#56 = VECTOR ( 'NONE', #835, 1000.000000000000000 ) ;
#57 = CARTESIAN_POINT ( 'NONE',  ( 2.040703999033895300, 0.3778630847968895100, 1.000000000000000200 ) ) ;
#58 = EDGE_LOOP ( 'NONE', ( #304, #827, #705, #317 ) ) ;
#59 =( NAMED_UNIT ( * ) SI_UNIT ( $, .STERADIAN. ) SOLID_ANGLE_UNIT ( ) );
#60 = EDGE_CURVE ( 'NONE', #512, #535, #723, .T. ) ;
#61 = CARTESIAN_POINT ( 'NONE',  ( 1.624999999999999800, 1.704999999999999800, 1.000000000000000000 ) ) ;
#62 = FACE_OUTER_BOUND ( 'NONE', #641, .T. ) ;
#63 = VECTOR ( 'NONE', #856, 1000.000000000000000 ) ;
#64 = CARTESIAN_POINT ( 'NONE',  ( -2.286068467282155800, 0.4984384910788321500, 1.000000000000000200 ) ) ;
#65 = EDGE_CURVE ( 'NONE', #143, #594, #146, .T. ) ;
#66 = STYLED_ITEM ( 'NONE', ( #78 ), #611 ) ;
#67 =( NAMED_UNIT ( * ) PLANE_ANGLE_UNIT ( ) SI_UNIT ( $, .RADIAN. ) );
#68 = ADVANCED_FACE ( 'NONE', ( #920 ), #892, .F. ) ;
#69 = SHAPE_DEFINITION_REPRESENTATION ( #381, #217 ) ;
#70 = AXIS2_PLACEMENT_3D ( 'NONE', #189, #933, #935 ) ;
#71 = CARTESIAN_POINT ( 'NONE',  ( -1.624999999999999800, 1.704999999999999800, 0.03500000000000011400 ) ) ;
#72 = DIRECTION ( 'NONE',  ( 0.0000000000000000000, -0.0000000000000000000, -1.000000000000000000 ) ) ;
#73 = DIRECTION ( 'NONE',  ( 1.000000000000000000, 0.0000000000000000000, -0.0000000000000000000 ) ) ;
#74 = CARTESIAN_POINT ( 'NONE',  ( 1.624999999999999800, 1.740000000000000000, 0.03499999999999987800 ) ) ;
#75 = VECTOR ( 'NONE', #470, 1000.000000000000000 ) ;
#76 = COLOUR_RGB ( '',0.0000000000000000000, 0.7529411764705882200, 0.0000000000000000000 ) ;
#77 = DIRECTION ( 'NONE',  ( 0.0000000000000000000, -1.000000000000000000, 0.0000000000000000000 ) ) ;
#78 = PRESENTATION_STYLE_ASSIGNMENT (( #739 ) ) ;
#79 = DIRECTION ( 'NONE',  ( 0.0000000000000000000, 0.0000000000000000000, 1.000000000000000000 ) ) ;
#80 = ORIENTED_EDGE ( 'NONE', *, *, #816, .F. ) ;
#81 = ADVANCED_FACE ( 'NONE', ( #950 ), #799, .F. ) ;
#82 = CARTESIAN_POINT ( 'NONE',  ( 2.109006670618358600, -0.4461134518049076300, 2.731566838029605600E-017 ) ) ;
#83 = LINE ( 'NONE', #702, #46 ) ;
#84 = DIRECTION ( 'NONE',  ( -2.543582809350158000E-016, 1.000000000000000000, 0.0000000000000000000 ) ) ;
#85 = LINE ( 'NONE', #698, #420 ) ;
#86 = DIRECTION ( 'NONE',  ( -1.000000000000000000, -0.0000000000000000000, -0.0000000000000000000 ) ) ;
#87 = LINE ( 'NONE', #917, #288 ) ;
#88 = CARTESIAN_POINT ( 'NONE',  ( 1.923886548195093500, 0.2609933293816398800, -1.598070447330072400E-017 ) ) ;
#89 = DIRECTION ( 'NONE',  ( 1.000000000000000000, 0.0000000000000000000, -0.0000000000000000000 ) ) ;
#90 = PRESENTATION_LAYER_ASSIGNMENT (  '', '', ( #397 ) ) ;
#91 = CARTESIAN_POINT ( 'NONE',  ( 2.369999999999999700, -0.5000000000000013300, 1.530757942277971600E-017 ) ) ;
#92 = CARTESIAN_POINT ( 'NONE',  ( 2.369999999999999700, 0.4999999999999986100, 1.000000000000000000 ) ) ;
#93 = STYLED_ITEM ( 'NONE', ( #895 ), #565 ) ;
#94 = CARTESIAN_POINT ( 'NONE',  ( -2.364999999999999800, -1.704999999999999800, 1.000000000000000000 ) ) ;
#95 = VECTOR ( 'NONE', #325, 1000.000000000000000 ) ;
#96 = DIRECTION ( 'NONE',  ( 0.0000000000000000000, 0.0000000000000000000, 1.000000000000000000 ) ) ;
#97 = CARTESIAN_POINT ( 'NONE',  ( -1.625000000000000000, -1.740000000000000200, 0.03500000000000009400 ) ) ;
#98 = EDGE_CURVE ( 'NONE', #857, #200, #375, .T. ) ;
#99 = B_SPLINE_CURVE_WITH_KNOTS ( 'NONE', 3,
 ( #6, #817, #82, #465, #913, #160, #88, #392, #401, #469 ),
 .UNSPECIFIED., .F., .F.,
 ( 4, 2, 2, 2, 4 ),
 ( 0.0000000000000000000, 0.2500000000000001700, 0.5000000000000000000, 0.7500000000000000000, 1.000000000000000000 ),
 .UNSPECIFIED. ) ;
#100 = DIRECTION ( 'NONE',  ( 0.0000000000000000000, 0.0000000000000000000, 1.000000000000000000 ) ) ;
#101 = AXIS2_PLACEMENT_3D ( 'NONE', #18, #391, #234 ) ;
#102 = DIRECTION ( 'NONE',  ( 0.0000000000000000000, 0.0000000000000000000, 1.000000000000000000 ) ) ;
#103 = ORIENTED_EDGE ( 'NONE', *, *, #942, .T. ) ;
#104 = ORIENTED_EDGE ( 'NONE', *, *, #408, .F. ) ;
#105 = VERTEX_POINT ( 'NONE', #61 ) ;
#106 = EDGE_LOOP ( 'NONE', ( #441, #263, #491, #591, #187 ) ) ;
#107 = DIRECTION ( 'NONE',  ( 1.271791404675078700E-016, -1.000000000000000000, 0.0000000000000000000 ) ) ;
#108 = DIRECTION ( 'NONE',  ( 0.0000000000000000000, 0.0000000000000000000, -1.000000000000000000 ) ) ;
#109 = VECTOR ( 'NONE', #755, 1000.000000000000000 ) ;
#110 = ORIENTED_EDGE ( 'NONE', *, *, #642, .T. ) ;
#111 = VECTOR ( 'NONE', #73, 1000.000000000000000 ) ;
#112 = CARTESIAN_POINT ( 'NONE',  ( 1.624999999999999800, -1.740000000000000200, 1.016439536705160400E-016 ) ) ;
#113 = LINE ( 'NONE', #703, #496 ) ;
#114 = CARTESIAN_POINT ( 'NONE',  ( -2.195966282804288300, 0.4738859421417107600, 1.000000000000000200 ) ) ;
#115 = EDGE_CURVE ( 'NONE', #212, #748, #48, .T. ) ;
#116 = CARTESIAN_POINT ( 'NONE',  ( 1.959987049558221900, -0.2899147042692809500, 1.000000000000000400 ) ) ;
#117 = PRODUCT ( 'alsrobot-Fuse 1812', 'alsrobot-Fuse 1812', '', ( #658 ) ) ;
#118 = DIRECTION ( 'NONE',  ( 0.0000000000000000000, -0.0000000000000000000, -1.000000000000000000 ) ) ;
#119 = ORIENTED_EDGE ( 'NONE', *, *, #511, .F. ) ;
#120 = CARTESIAN_POINT ( 'NONE',  ( 2.065065997813885400, -0.4020681698475068200, 1.000000000000000200 ) ) ;
#121 =( GEOMETRIC_REPRESENTATION_CONTEXT ( 3 ) GLOBAL_UNCERTAINTY_ASSIGNED_CONTEXT ( ( #731 ) ) GLOBAL_UNIT_ASSIGNED_CONTEXT ( ( #145, #8, #220 ) ) REPRESENTATION_CONTEXT ( 'NONE', 'WORKASPACE' ) );
#122 = PRESENTATION_LAYER_ASSIGNMENT (  '', '', ( #927 ) ) ;
#123 = PRESENTATION_LAYER_ASSIGNMENT (  '', '', ( #24 ) ) ;
#124 = CARTESIAN_POINT ( 'NONE',  ( -2.365000000000000700, -1.705000000000000100, 0.0000000000000000000 ) ) ;
#125 = SURFACE_STYLE_FILL_AREA ( #879 ) ;
#126 = CARTESIAN_POINT ( 'NONE',  ( 1.918628854521259800, -0.2157927750485671400, 0.9999999999999997800 ) ) ;
#127 = DIRECTION ( 'NONE',  ( 1.000000000000000000, 0.0000000000000000000, 0.0000000000000000000 ) ) ;
#128 = DIRECTION ( 'NONE',  ( 1.000000000000000000, 0.0000000000000000000, -0.0000000000000000000 ) ) ;
#129 = VERTEX_POINT ( 'NONE', #651 ) ;
#130 = VERTEX_POINT ( 'NONE', #603 ) ;
#131 = COLOUR_RGB ( '',0.0000000000000000000, 0.7529411764705882200, 0.0000000000000000000 ) ;
#132 = CARTESIAN_POINT ( 'NONE',  ( -1.625000000000000000, -1.740000000000000200, 1.035000000000000100 ) ) ;
#133 = LINE ( 'NONE', #254, #471 ) ;
#134 = PLANE ( 'NONE',  #806 ) ;
#135 = CARTESIAN_POINT ( 'NONE',  ( 1.624999999999999800, -1.704999999999999800, 2.541098841762901000E-017 ) ) ;
#136 = ORIENTED_EDGE ( 'NONE', *, *, #615, .T. ) ;
#137 = AXIS2_PLACEMENT_3D ( 'NONE', #936, #659, #956 ) ;
#138 = ORIENTED_EDGE ( 'NONE', *, *, #640, .T. ) ;
#139 = CARTESIAN_POINT ( 'NONE',  ( -2.239179203254639800, -0.4910830586372881800, 1.000000000000000700 ) ) ;
#140 = ADVANCED_FACE ( 'NONE', ( #577 ), #900, .F. ) ;
#141 =( NAMED_UNIT ( * ) SI_UNIT ( $, .STERADIAN. ) SOLID_ANGLE_UNIT ( ) );
#142 = VECTOR ( 'NONE', #503, 1000.000000000000000 ) ;
#143 = VERTEX_POINT ( 'NONE', #135 ) ;
#144 = CARTESIAN_POINT ( 'NONE',  ( -2.365000000000000200, 3.724505513030829100E-016, 0.0000000000000000000 ) ) ;
#145 =( LENGTH_UNIT ( ) NAMED_UNIT ( * ) SI_UNIT ( .MILLI., .METRE. ) );
#146 = LINE ( 'NONE', #506, #899 ) ;
#147 = AXIS2_PLACEMENT_3D ( 'NONE', #635, #335, #488 ) ;
#148 = COLOUR_RGB ( '',0.7960784313725489700, 0.8235294117647058400, 0.9372549019607843100 ) ;
#149 = CARTESIAN_POINT ( 'NONE',  ( -2.365000000000000700, 1.704999999999999800, 1.000000000000000000 ) ) ;
#150 = SURFACE_SIDE_STYLE ('',( #530 ) ) ;
#151 = EDGE_CURVE ( 'NONE', #748, #262, #842, .T. ) ;
#152 = ORIENTED_EDGE ( 'NONE', *, *, #819, .F. ) ;
#153 = CARTESIAN_POINT ( 'NONE',  ( -2.117557296533987700, -0.4381765359506321100, 1.000000000000000000 ) ) ;
#154 = ORIENTED_EDGE ( 'NONE', *, *, #628, .T. ) ;
#155 = EDGE_LOOP ( 'NONE', ( #570, #284, #460, #736 ) ) ;
#156 = AXIS2_PLACEMENT_3D ( 'NONE', #249, #243, #769 ) ;
#157 = FACE_OUTER_BOUND ( 'NONE', #155, .T. ) ;
#158 = SURFACE_STYLE_FILL_AREA ( #45 ) ;
#159 = FACE_OUTER_BOUND ( 'NONE', #106, .T. ) ;
#160 = CARTESIAN_POINT ( 'NONE',  ( 1.870000000000000100, 0.1308996938995734800, -8.015029843141178200E-018 ) ) ;
#161 = DIRECTION ( 'NONE',  ( 1.000000000000000000, 0.0000000000000000000, 0.0000000000000000000 ) ) ;
#162 = CARTESIAN_POINT ( 'NONE',  ( 1.624999999999999800, -1.740000000000000200, 1.034900000000000400 ) ) ;
#163 = ORIENTED_EDGE ( 'NONE', *, *, #942, .F. ) ;
#164 = EDGE_CURVE ( 'NONE', #129, #748, #183, .T. ) ;
#165 = ORIENTED_EDGE ( 'NONE', *, *, #339, .F. ) ;
#166 = VERTEX_POINT ( 'NONE', #214 ) ;
#167 = CARTESIAN_POINT ( 'NONE',  ( 2.369999999999999700, 0.4999999999999985000, -7.653789711389857900E-018 ) ) ;
#168 =( NAMED_UNIT ( * ) SI_UNIT ( $, .STERADIAN. ) SOLID_ANGLE_UNIT ( ) );
#169 = PRESENTATION_STYLE_ASSIGNMENT (( #881 ) ) ;
#170 = DIRECTION ( 'NONE',  ( 0.0000000000000000000, -0.0000000000000000000, 1.000000000000000000 ) ) ;
#171 = FACE_OUTER_BOUND ( 'NONE', #880, .T. ) ;
#172 = CARTESIAN_POINT ( 'NONE',  ( 1.624999999999999800, 1.704999999999999800, 0.03499999999999988500 ) ) ;
#173 = VECTOR ( 'NONE', #740, 1000.000000000000000 ) ;
#174 = ADVANCED_FACE ( 'NONE', ( #340 ), #440, .F. ) ;
#175 = PLANE ( 'NONE',  #475 ) ;
#176 = PLANE ( 'NONE',  #156 ) ;
#177 = DIRECTION ( 'NONE',  ( 0.0000000000000000000, -1.000000000000000000, 0.0000000000000000000 ) ) ;
#178 = UNCERTAINTY_MEASURE_WITH_UNIT (LENGTH_MEASURE( 1.000000000000000100E-005 ), #505, 'distance_accuracy_value', 'NONE');
#179 = CARTESIAN_POINT ( 'NONE',  ( -1.624999999999999800, 1.704999999999999800, -2.541098841762901000E-017 ) ) ;
#180 = DIRECTION ( 'NONE',  ( 1.000000000000000000, 0.0000000000000000000, -0.0000000000000000000 ) ) ;
#181 = ORIENTED_EDGE ( 'NONE', *, *, #925, .F. ) ;
#182 = FACE_OUTER_BOUND ( 'NONE', #846, .T. ) ;
#183 = LINE ( 'NONE', #811, #362 ) ;
#184 = EDGE_CURVE ( 'NONE', #544, #414, #44, .T. ) ;
#185 = CARTESIAN_POINT ( 'NONE',  ( 1.624999999999999800, 1.704999999999999800, 0.03499999999999987800 ) ) ;
#186 = EDGE_LOOP ( 'NONE', ( #546, #478, #306, #804 ) ) ;
#187 = ORIENTED_EDGE ( 'NONE', *, *, #522, .F. ) ;
#188 = B_SPLINE_CURVE_WITH_KNOTS ( 'NONE', 3,
 ( #947, #244, #279, #624, #476, #468 ),
 .UNSPECIFIED., .F., .F.,
 ( 4, 2, 4 ),
 ( 0.0000000000000000000, 0.4999999999999996700, 1.000000000000000000 ),
 .UNSPECIFIED. ) ;
#189 = CARTESIAN_POINT ( 'NONE',  ( 2.369999999999999700, 1.704999999999999800, 1.000000000000000000 ) ) ;
#190 = CARTESIAN_POINT ( 'NONE',  ( 1.624999999999999800, -1.740000000000000200, 1.034900000000000400 ) ) ;
#191 = ORIENTED_EDGE ( 'NONE', *, *, #640, .F. ) ;
#192 = MECHANICAL_DESIGN_GEOMETRIC_PRESENTATION_REPRESENTATION (  '', ( #397 ), #743 ) ;
#193 = CARTESIAN_POINT ( 'NONE',  ( 1.624999999999999800, 1.740000000000000000, 1.035000000000000100 ) ) ;
#194 = COLOUR_RGB ( '',0.0000000000000000000, 0.7529411764705882200, 0.0000000000000000000 ) ;
#195 = VECTOR ( 'NONE', #726, 1000.000000000000000 ) ;
#196 = CARTESIAN_POINT ( 'NONE',  ( 2.244891745814085600, 0.4882980501770702300, 1.000000000000000200 ) ) ;
#197 = DIRECTION ( 'NONE',  ( -1.000000000000000000, 0.0000000000000000000, -0.0000000000000000000 ) ) ;
#198 = CARTESIAN_POINT ( 'NONE',  ( 2.291516989660576300, -0.4956117688164032900, 1.000000000000000200 ) ) ;
#199 = AXIS2_PLACEMENT_3D ( 'NONE', #896, #824, #197 ) ;
#200 = VERTEX_POINT ( 'NONE', #172 ) ;
#201 = CARTESIAN_POINT ( 'NONE',  ( 2.080085295730813600, 0.4100129504418449900, 1.000000000000000200 ) ) ;
#202 = ORIENTED_EDGE ( 'NONE', *, *, #151, .T. ) ;
#203 = APPLICATION_CONTEXT ( 'automotive_design' ) ;
#204 = EDGE_CURVE ( 'NONE', #519, #582, #787, .T. ) ;
#205 = FACE_OUTER_BOUND ( 'NONE', #814, .T. ) ;
#206 = PRODUCT_DEFINITION_CONTEXT ( 'detailed design', #203, 'design' ) ;
#207 = SURFACE_SIDE_STYLE ('',( #945 ) ) ;
#208 = LINE ( 'NONE', #553, #11 ) ;
#209 = CARTESIAN_POINT ( 'NONE',  ( 2.306240864074397700, 0.4999999999999986100, 1.000000000000000200 ) ) ;
#210 = ORIENTED_EDGE ( 'NONE', *, *, #314, .F. ) ;
#211 = CARTESIAN_POINT ( 'NONE',  ( -1.877594657583483400, -0.1248184241410375700, 1.000000000000000000 ) ) ;
#212 = VERTEX_POINT ( 'NONE', #364 ) ;
#213 = EDGE_CURVE ( 'NONE', #356, #414, #564, .T. ) ;
#214 = CARTESIAN_POINT ( 'NONE',  ( -2.365000000000000700, 1.704999999999999800, 0.0000000000000000000 ) ) ;
#215 = VECTOR ( 'NONE', #722, 1000.000000000000000 ) ;
#216 = COLOUR_RGB ( '',0.7529411764705882200, 0.7529411764705882200, 0.7529411764705882200 ) ;
#217 = ADVANCED_BREP_SHAPE_REPRESENTATION ( 'alsrobot-Fuse 1812', ( #600, #567 ), #921 ) ;
#218 = FACE_OUTER_BOUND ( 'NONE', #186, .T. ) ;
#219 = DIRECTION ( 'NONE',  ( 0.0000000000000000000, 0.0000000000000000000, -1.000000000000000000 ) ) ;
#220 =( NAMED_UNIT ( * ) SI_UNIT ( $, .STERADIAN. ) SOLID_ANGLE_UNIT ( ) );
#221 =( LENGTH_UNIT ( ) NAMED_UNIT ( * ) SI_UNIT ( .MILLI., .METRE. ) );
#222 = ORIENTED_EDGE ( 'NONE', *, *, #903, .F. ) ;
#223 = ORIENTED_EDGE ( 'NONE', *, *, #707, .T. ) ;
#224 = CARTESIAN_POINT ( 'NONE',  ( 2.369999999999999700, 1.704999999999999800, 1.000000000000000000 ) ) ;
#225 = CARTESIAN_POINT ( 'NONE',  ( 2.370000000000000600, -1.705000000000000100, 1.000000000000000000 ) ) ;
#226 = ORIENTED_EDGE ( 'NONE', *, *, #347, .F. ) ;
#227 =( NAMED_UNIT ( * ) SI_UNIT ( $, .STERADIAN. ) SOLID_ANGLE_UNIT ( ) );
#228 = FACE_OUTER_BOUND ( 'NONE', #717, .T. ) ;
#229 = FACE_OUTER_BOUND ( 'NONE', #58, .T. ) ;
#230 = PRESENTATION_STYLE_ASSIGNMENT (( #479 ) ) ;
#231 = ORIENTED_EDGE ( 'NONE', *, *, #373, .F. ) ;
#232 = ORIENTED_EDGE ( 'NONE', *, *, #164, .F. ) ;
#233 = CARTESIAN_POINT ( 'NONE',  ( 1.934309197403955900, -0.2460405891880936600, 0.9999999999999997800 ) ) ;
#234 = DIRECTION ( 'NONE',  ( -2.543582809350158000E-016, 1.000000000000000000, 0.0000000000000000000 ) ) ;
#235 = VECTOR ( 'NONE', #777, 1000.000000000000000 ) ;
#236 = FILL_AREA_STYLE ('',( #905 ) ) ;
#237 = DIRECTION ( 'NONE',  ( 0.0000000000000000000, 0.0000000000000000000, 1.000000000000000000 ) ) ;
#238 = LINE ( 'NONE', #688, #286 ) ;
#239 = DIRECTION ( 'NONE',  ( -1.000000000000000000, -0.0000000000000000000, -0.0000000000000000000 ) ) ;
#240 = CARTESIAN_POINT ( 'NONE',  ( 1.624999999999999800, -1.740000000000000200, 1.034900000000000400 ) ) ;
#241 = MECHANICAL_DESIGN_GEOMETRIC_PRESENTATION_REPRESENTATION (  '', ( #650 ), #720 ) ;
#242 =( NAMED_UNIT ( * ) SI_UNIT ( $, .STERADIAN. ) SOLID_ANGLE_UNIT ( ) );
#243 = DIRECTION ( 'NONE',  ( 0.0000000000000000000, 0.0000000000000000000, 1.000000000000000000 ) ) ;
#244 = CARTESIAN_POINT ( 'NONE',  ( -2.233353719553913500, 0.5028517505437580800, 0.0000000000000000000 ) ) ;
#245 = ORIENTED_EDGE ( 'NONE', *, *, #300, .F. ) ;
#246 = VERTEX_POINT ( 'NONE', #647 ) ;
#247 = CARTESIAN_POINT ( 'NONE',  ( -2.365000000000000200, -0.5028517505437566400, 0.0000000000000000000 ) ) ;
#248 = AXIS2_PLACEMENT_3D ( 'NONE', #757, #410, #89 ) ;
#249 = CARTESIAN_POINT ( 'NONE',  ( -2.364999999999999800, -1.705000000000000100, 1.000000000000000000 ) ) ;
#250 = CARTESIAN_POINT ( 'NONE',  ( -2.364999999999999800, -1.705000000000000100, 1.000000000000000000 ) ) ;
#251 = AXIS2_PLACEMENT_3D ( 'NONE', #224, #294, #552 ) ;
#252 = LINE ( 'NONE', #541, #33 ) ;
#253 = PLANE ( 'NONE',  #50 ) ;
#254 = CARTESIAN_POINT ( 'NONE',  ( 2.370000000000000600, -1.705000000000000100, 1.000000000000000000 ) ) ;
#255 = LINE ( 'NONE', #315, #634 ) ;
#256 = EDGE_CURVE ( 'NONE', #730, #858, #363, .T. ) ;
#257 = ORIENTED_EDGE ( 'NONE', *, *, #511, .T. ) ;
#258 =( NAMED_UNIT ( * ) SI_UNIT ( $, .STERADIAN. ) SOLID_ANGLE_UNIT ( ) );
#259 = SURFACE_STYLE_USAGE ( .BOTH. , #768 ) ;
#260 = STYLED_ITEM ( 'NONE', ( #606 ), #217 ) ;
#261 = DIRECTION ( 'NONE',  ( -1.271791404675078700E-016, 1.000000000000000000, 0.0000000000000000000 ) ) ;
#262 = VERTEX_POINT ( 'NONE', #349 ) ;
#263 = ORIENTED_EDGE ( 'NONE', *, *, #834, .T. ) ;
#264 = EDGE_LOOP ( 'NONE', ( #154, #654, #695, #463 ) ) ;
#265 = SURFACE_STYLE_FILL_AREA ( #752 ) ;
#266 =( LENGTH_UNIT ( ) NAMED_UNIT ( * ) SI_UNIT ( .MILLI., .METRE. ) );
#267 = EDGE_CURVE ( 'NONE', #750, #794, #5, .T. ) ;
#268 = LINE ( 'NONE', #185, #839 ) ;
#269 = SURFACE_SIDE_STYLE ('',( #265 ) ) ;
#270 = CARTESIAN_POINT ( 'NONE',  ( 2.369999999999999700, -0.5000000000000013300, 1.000000000000000000 ) ) ;
#271 =( GEOMETRIC_REPRESENTATION_CONTEXT ( 3 ) GLOBAL_UNCERTAINTY_ASSIGNED_CONTEXT ( ( #322 ) ) GLOBAL_UNIT_ASSIGNED_CONTEXT ( ( #487, #625, #258 ) ) REPRESENTATION_CONTEXT ( 'NONE', 'WORKASPACE' ) );
#272 = ORIENTED_EDGE ( 'NONE', *, *, #184, .F. ) ;
#273 = ORIENTED_EDGE ( 'NONE', *, *, #660, .T. ) ;
#274 = ORIENTED_EDGE ( 'NONE', *, *, #885, .T. ) ;
#275 = CARTESIAN_POINT ( 'NONE',  ( -1.862148249456242200, 0.06412177372234607900, 0.9999999999999997800 ) ) ;
#276 = AXIS2_PLACEMENT_3D ( 'NONE', #556, #102, #180 ) ;
#277 = FILL_AREA_STYLE_COLOUR ( '', #216 ) ;
#278 = VECTOR ( 'NONE', #72, 1000.000000000000000 ) ;
#279 = CARTESIAN_POINT ( 'NONE',  ( -2.102518094880395900, 0.4486578603624312700, -0.0000000000000000000 ) ) ;
#280 = B_SPLINE_CURVE_WITH_KNOTS ( 'NONE', 3,
 ( #614, #31, #35, #561, #403, #247 ),
 .UNSPECIFIED., .F., .F.,
 ( 4, 2, 4 ),
 ( 0.0000000000000000000, 0.4999999999999996700, 1.000000000000000000 ),
 .UNSPECIFIED. ) ;
#281 = CARTESIAN_POINT ( 'NONE',  ( -1.891114057858288800, -0.1690337171957109500, 1.000000000000000200 ) ) ;
#282 = VERTEX_POINT ( 'NONE', #797 ) ;
#283 = ORIENTED_EDGE ( 'NONE', *, *, #1, .F. ) ;
#284 = ORIENTED_EDGE ( 'NONE', *, *, #853, .F. ) ;
#285 = DIRECTION ( 'NONE',  ( -0.0000000000000000000, 1.000000000000000000, 0.0000000000000000000 ) ) ;
#286 = VECTOR ( 'NONE', #13, 1000.000000000000000 ) ;
#287 = CARTESIAN_POINT ( 'NONE',  ( -1.922815394445101400, -0.2493504765625751100, 1.000000000000000200 ) ) ;
#288 = VECTOR ( 'NONE', #331, 1000.000000000000000 ) ;
#289 = UNCERTAINTY_MEASURE_WITH_UNIT (LENGTH_MEASURE( 1.000000000000000100E-005 ), #221, 'distance_accuracy_value', 'NONE');
#290 =( GEOMETRIC_REPRESENTATION_CONTEXT ( 3 ) GLOBAL_UNCERTAINTY_ASSIGNED_CONTEXT ( ( #672 ) ) GLOBAL_UNIT_ASSIGNED_CONTEXT ( ( #517, #515, #436 ) ) REPRESENTATION_CONTEXT ( 'NONE', 'WORKASPACE' ) );
#291 = CARTESIAN_POINT ( 'NONE',  ( 1.624999999999999800, 1.704999999999999800, 0.03500000000000011400 ) ) ;
#292 = ORIENTED_EDGE ( 'NONE', *, *, #791, .T. ) ;
#293 = EDGE_LOOP ( 'NONE', ( #897, #663, #948, #226, #708 ) ) ;
#294 = DIRECTION ( 'NONE',  ( -1.000000000000000000, -2.543582809350158000E-016, 0.0000000000000000000 ) ) ;
#295 = SURFACE_SIDE_STYLE ('',( #125 ) ) ;
#296 =( NAMED_UNIT ( * ) PLANE_ANGLE_UNIT ( ) SI_UNIT ( $, .RADIAN. ) );
#297 = VECTOR ( 'NONE', #788, 1000.000000000000000 ) ;
#298 =( NAMED_UNIT ( * ) PLANE_ANGLE_UNIT ( ) SI_UNIT ( $, .RADIAN. ) );
#299 = COLOUR_RGB ( '',0.0000000000000000000, 0.7529411764705882200, 0.0000000000000000000 ) ;
#300 = EDGE_CURVE ( 'NONE', #334, #715, #372, .T. ) ;
#301 = DIRECTION ( 'NONE',  ( 0.0000000000000000000, -0.0000000000000000000, -1.000000000000000000 ) ) ;
#302 = PRESENTATION_LAYER_ASSIGNMENT (  '', '', ( #260 ) ) ;
#303 = ORIENTED_EDGE ( 'NONE', *, *, #339, .T. ) ;
#304 = ORIENTED_EDGE ( 'NONE', *, *, #791, .F. ) ;
#305 = VERTEX_POINT ( 'NONE', #864 ) ;
#306 = ORIENTED_EDGE ( 'NONE', *, *, #115, .F. ) ;
#307 = VECTOR ( 'NONE', #588, 1000.000000000000000 ) ;
#308 = CARTESIAN_POINT ( 'NONE',  ( 2.370000000000000100, -1.362272924673724200E-015, 0.0000000000000000000 ) ) ;
#309 = LINE ( 'NONE', #329, #904 ) ;
#310 = ORIENTED_EDGE ( 'NONE', *, *, #660, .F. ) ;
#311 = CARTESIAN_POINT ( 'NONE',  ( -1.625000000000000400, 1.740000000000000000, 1.035000000000000100 ) ) ;
#312 = PLANE ( 'NONE',  #248 ) ;
#313 = CARTESIAN_POINT ( 'NONE',  ( -1.624999999999999800, -1.705000000000000100, 1.000000000000000000 ) ) ;
#314 = EDGE_CURVE ( 'NONE', #794, #212, #394, .T. ) ;
#315 = CARTESIAN_POINT ( 'NONE',  ( 1.624999999999999800, 1.704999999999999800, 1.000000000000000000 ) ) ;
#316 = MECHANICAL_DESIGN_GEOMETRIC_PRESENTATION_REPRESENTATION (  '', ( #868 ), #916 ) ;
#317 = ORIENTED_EDGE ( 'NONE', *, *, #256, .F. ) ;
#318 = EDGE_LOOP ( 'NONE', ( #245, #685, #387, #191, #336, #152, #103, #781 ) ) ;
#319 = CARTESIAN_POINT ( 'NONE',  ( 1.624999999999999800, 1.704999999999999800, 2.541098841762901000E-017 ) ) ;
#320 = ORIENTED_EDGE ( 'NONE', *, *, #801, .F. ) ;
#321 = ADVANCED_FACE ( 'NONE', ( #764 ), #744, .F. ) ;
#322 = UNCERTAINTY_MEASURE_WITH_UNIT (LENGTH_MEASURE( 1.000000000000000100E-005 ), #487, 'distance_accuracy_value', 'NONE');
#323 = DIRECTION ( 'NONE',  ( 0.0000000000000000000, 1.000000000000000000, 0.0000000000000000000 ) ) ;
#324 = MECHANICAL_DESIGN_GEOMETRIC_PRESENTATION_REPRESENTATION (  '', ( #927 ), #271 ) ;
#325 = DIRECTION ( 'NONE',  ( -1.000000000000000000, -0.0000000000000000000, 0.0000000000000000000 ) ) ;
#326 = SURFACE_STYLE_FILL_AREA ( #566 ) ;
#327 = MECHANICAL_DESIGN_GEOMETRIC_PRESENTATION_REPRESENTATION (  '', ( #24 ), #482 ) ;
#328 = CARTESIAN_POINT ( 'NONE',  ( -1.624999999999999800, 1.740000000000000000, 0.03499999999999989200 ) ) ;
#329 = CARTESIAN_POINT ( 'NONE',  ( 2.370000000000000100, -0.5000000000000014400, 3.061515884555943100E-017 ) ) ;
#330 = DIRECTION ( 'NONE',  ( 1.271791404675078700E-016, -1.000000000000000000, 0.0000000000000000000 ) ) ;
#331 = DIRECTION ( 'NONE',  ( -0.0000000000000000000, -0.0000000000000000000, -1.000000000000000000 ) ) ;
#332 = ORIENTED_EDGE ( 'NONE', *, *, #98, .F. ) ;
#333 = ORIENTED_EDGE ( 'NONE', *, *, #779, .F. ) ;
#334 = VERTEX_POINT ( 'NONE', #960 ) ;
#335 = DIRECTION ( 'NONE',  ( 0.0000000000000000000, 1.000000000000000000, 0.0000000000000000000 ) ) ;
#336 = ORIENTED_EDGE ( 'NONE', *, *, #347, .T. ) ;
#337 = SURFACE_SIDE_STYLE ('',( #467 ) ) ;
#338 = VECTOR ( 'NONE', #626, 1000.000000000000000 ) ;
#339 = EDGE_CURVE ( 'NONE', #166, #909, #595, .T. ) ;
#340 = FACE_OUTER_BOUND ( 'NONE', #675, .T. ) ;
#341 = LINE ( 'NONE', #851, #886 ) ;
#342 = FILL_AREA_STYLE_COLOUR ( '', #597 ) ;
#343 = ORIENTED_EDGE ( 'NONE', *, *, #853, .T. ) ;
#344 = CARTESIAN_POINT ( 'NONE',  ( -1.903338671128886000, 0.1999161371500117700, 1.000000000000000000 ) ) ;
#345 = ORIENTED_EDGE ( 'NONE', *, *, #772, .T. ) ;
#346 = ORIENTED_EDGE ( 'NONE', *, *, #459, .F. ) ;
#347 = EDGE_CURVE ( 'NONE', #686, #750, #350, .T. ) ;
#348 = CARTESIAN_POINT ( 'NONE',  ( -1.862148249456242700, 3.723100469095682000E-016, 1.000000000000000000 ) ) ;
#349 = CARTESIAN_POINT ( 'NONE',  ( -2.365000000000000200, -0.5028517505437569700, 1.000000000000000000 ) ) ;
#350 = LINE ( 'NONE', #656, #574 ) ;
#351 = LINE ( 'NONE', #225, #528 ) ;
#352 = CARTESIAN_POINT ( 'NONE',  ( 1.967931830152390900, 0.3049340021860376700, 1.000000000000000000 ) ) ;
#353 = PRESENTATION_STYLE_ASSIGNMENT (( #901 ) ) ;
#354 = MECHANICAL_DESIGN_GEOMETRIC_PRESENTATION_REPRESENTATION (  '', ( #93 ), #454 ) ;
#355 = SURFACE_SIDE_STYLE ('',( #918 ) ) ;
#356 = VERTEX_POINT ( 'NONE', #431 ) ;
#357 = ORIENTED_EDGE ( 'NONE', *, *, #540, .T. ) ;
#358 = EDGE_CURVE ( 'NONE', #909, #129, #188, .T. ) ;
#359 = ORIENTED_EDGE ( 'NONE', *, *, #7, .F. ) ;
#360 = MECHANICAL_DESIGN_GEOMETRIC_PRESENTATION_REPRESENTATION (  '', ( #260 ), #411 ) ;
#361 = CARTESIAN_POINT ( 'NONE',  ( -1.862148249456242700, -0.03188251376240942800, 1.000000000000000200 ) ) ;
#362 = VECTOR ( 'NONE', #586, 1000.000000000000000 ) ;
#363 = LINE ( 'NONE', #497, #195 ) ;
#364 = CARTESIAN_POINT ( 'NONE',  ( -2.365000000000000200, 0.5028517505437579700, 1.000000000000000000 ) ) ;
#365 = ORIENTED_EDGE ( 'NONE', *, *, #373, .T. ) ;
#366 = ORIENTED_EDGE ( 'NONE', *, *, #772, .F. ) ;
#367 = VERTEX_POINT ( 'NONE', #867 ) ;
#368 = EDGE_CURVE ( 'NONE', #938, #674, #19, .T. ) ;
#369 = CARTESIAN_POINT ( 'NONE',  ( -2.333117486237594300, 0.5028517505437577500, 1.000000000000000200 ) ) ;
#370 = CARTESIAN_POINT ( 'NONE',  ( -1.624999999999999800, 1.704999999999999800, 1.035000000000000100 ) ) ;
#371 = AXIS2_PLACEMENT_3D ( 'NONE', #696, #466, #161 ) ;
#372 = LINE ( 'NONE', #132, #215 ) ;
#373 = EDGE_CURVE ( 'NONE', #544, #246, #384, .T. ) ;
#374 = DIRECTION ( 'NONE',  ( -1.271791404675078700E-016, 1.000000000000000000, 0.0000000000000000000 ) ) ;
#375 = LINE ( 'NONE', #291, #173 ) ;
#376 = CARTESIAN_POINT ( 'NONE',  ( -1.886421176513336100, -0.1551514345271039200, 1.000000000000000200 ) ) ;
#377 = CARTESIAN_POINT ( 'NONE',  ( -1.624999999999999800, -1.740000000000000200, 0.03500000000000011400 ) ) ;
#378 = SURFACE_STYLE_USAGE ( .BOTH. , #887 ) ;
#379 = VERTEX_POINT ( 'NONE', #91 ) ;
#380 =( NAMED_UNIT ( * ) SI_UNIT ( $, .STERADIAN. ) SOLID_ANGLE_UNIT ( ) );
#381 = PRODUCT_DEFINITION_SHAPE ( 'NONE', 'NONE',  #609 ) ;
#382 = DIRECTION ( 'NONE',  ( 0.0000000000000000000, 0.0000000000000000000, 1.000000000000000000 ) ) ;
#383 = UNCERTAINTY_MEASURE_WITH_UNIT (LENGTH_MEASURE( 1.000000000000000100E-005 ), #266, 'distance_accuracy_value', 'NONE');
#384 = LINE ( 'NONE', #516, #785 ) ;
#385 = VECTOR ( 'NONE', #374, 1000.000000000000000 ) ;
#386 = ADVANCED_FACE ( 'NONE', ( #228 ), #549, .F. ) ;
#387 = ORIENTED_EDGE ( 'NONE', *, *, #540, .F. ) ;
#388 = VERTEX_POINT ( 'NONE', #508 ) ;
#389 = ORIENTED_EDGE ( 'NONE', *, *, #819, .T. ) ;
#390 = ORIENTED_EDGE ( 'NONE', *, *, #902, .F. ) ;
#391 = DIRECTION ( 'NONE',  ( 1.000000000000000000, 2.543582809350158000E-016, -0.0000000000000000000 ) ) ;
#392 = CARTESIAN_POINT ( 'NONE',  ( 2.109006670618359400, 0.4461134518049051400, -2.731566838029606900E-017 ) ) ;
#393 = CARTESIAN_POINT ( 'NONE',  ( 1.236867777919314900, 0.5800000000000001800, 1.034900000000000400 ) ) ;
#394 = LINE ( 'NONE', #616, #3 ) ;
#395 =( LENGTH_UNIT ( ) NAMED_UNIT ( * ) SI_UNIT ( .MILLI., .METRE. ) );
#396 = EDGE_LOOP ( 'NONE', ( #501, #346, #439, #333, #866, #104, #320, #716 ) ) ;
#397 = STYLED_ITEM ( 'NONE', ( #169 ), #9 ) ;
#398 = LINE ( 'NONE', #313, #575 ) ;
#399 = ADVANCED_FACE ( 'NONE', ( #584 ), #623, .F. ) ;
#400 = LINE ( 'NONE', #859, #679 ) ;
#401 = CARTESIAN_POINT ( 'NONE',  ( 2.239100306100425500, 0.4999999999999987200, -3.061515884555944400E-017 ) ) ;
#402 = PLANE ( 'NONE',  #147 ) ;
#403 = CARTESIAN_POINT ( 'NONE',  ( -2.233353719553914400, -0.5028517505437574100, 0.0000000000000000000 ) ) ;
#404 = ORIENTED_EDGE ( 'NONE', *, *, #314, .T. ) ;
#405 = VERTEX_POINT ( 'NONE', #179 ) ;
#406 = DIRECTION ( 'NONE',  ( 0.0000000000000000000, -1.000000000000000000, 0.0000000000000000000 ) ) ;
#407 = DIRECTION ( 'NONE',  ( 0.0000000000000000000, 6.123031769111886300E-017, 1.000000000000000000 ) ) ;
#408 = EDGE_CURVE ( 'NONE', #200, #105, #593, .T. ) ;
#409 = PLANE ( 'NONE',  #782 ) ;
#410 = DIRECTION ( 'NONE',  ( 0.0000000000000000000, 0.0000000000000000000, 1.000000000000000000 ) ) ;
#411 =( GEOMETRIC_REPRESENTATION_CONTEXT ( 3 ) GLOBAL_UNCERTAINTY_ASSIGNED_CONTEXT ( ( #798 ) ) GLOBAL_UNIT_ASSIGNED_CONTEXT ( ( #429, #955, #510 ) ) REPRESENTATION_CONTEXT ( 'NONE', 'WORKASPACE' ) );
#412 = LINE ( 'NONE', #762, #56 ) ;
#413 = CARTESIAN_POINT ( 'NONE',  ( -2.365000000000000700, 1.704999999999999800, 1.000000000000000000 ) ) ;
#414 = VERTEX_POINT ( 'NONE', #481 ) ;
#415 = CARTESIAN_POINT ( 'NONE',  ( 1.624999999999999800, 1.740000000000000200, 1.034900000000000400 ) ) ;
#416 = ORIENTED_EDGE ( 'NONE', *, *, #677, .T. ) ;
#417 = CARTESIAN_POINT ( 'NONE',  ( -2.209848565472901400, 0.4785788234866649700, 1.000000000000000200 ) ) ;
#418 = FILL_AREA_STYLE ('',( #342 ) ) ;
#419 = VECTOR ( 'NONE', #15, 1000.000000000000000 ) ;
#420 = VECTOR ( 'NONE', #239, 1000.000000000000000 ) ;
#421 = CARTESIAN_POINT ( 'NONE',  ( 1.869966451220723900, 0.03161619605706274300, 1.000000000000000000 ) ) ;
#422 = FACE_OUTER_BOUND ( 'NONE', #536, .T. ) ;
#423 = AXIS2_PLACEMENT_3D ( 'NONE', #308, #53, #425 ) ;
#424 = FILL_AREA_STYLE ('',( #820 ) ) ;
#425 = DIRECTION ( 'NONE',  ( 0.0000000000000000000, -1.000000000000000000, 6.123031769111886300E-017 ) ) ;
#426 = SURFACE_STYLE_USAGE ( .BOTH. , #269 ) ;
#427 = CARTESIAN_POINT ( 'NONE',  ( 2.245890139361206700, -0.4846411908574082000, 1.000000000000000000 ) ) ;
#428 = EDGE_LOOP ( 'NONE', ( #514, #210, #877, #303 ) ) ;
#429 =( LENGTH_UNIT ( ) NAMED_UNIT ( * ) SI_UNIT ( .MILLI., .METRE. ) );
#430 = CARTESIAN_POINT ( 'NONE',  ( -2.147977200572503500, -0.4539460315448622900, 1.000000000000000000 ) ) ;
#431 = CARTESIAN_POINT ( 'NONE',  ( 2.369999999999999700, -0.5000000000000013300, 1.000000000000000000 ) ) ;
#432 = VECTOR ( 'NONE', #486, 1000.000000000000000 ) ;
#433 = COLOUR_RGB ( '',0.0000000000000000000, 0.7529411764705882200, 0.0000000000000000000 ) ;
#434 = VECTOR ( 'NONE', #40, 1000.000000000000000 ) ;
#435 = LINE ( 'NONE', #548, #608 ) ;
#436 =( NAMED_UNIT ( * ) SI_UNIT ( $, .STERADIAN. ) SOLID_ANGLE_UNIT ( ) );
#437 = ORIENTED_EDGE ( 'NONE', *, *, #438, .T. ) ;
#438 = EDGE_CURVE ( 'NONE', #105, #130, #255, .T. ) ;
#439 = ORIENTED_EDGE ( 'NONE', *, *, #587, .F. ) ;
#440 = PLANE ( 'NONE',  #199 ) ;
#441 = ORIENTED_EDGE ( 'NONE', *, *, #459, .T. ) ;
#442 = DIRECTION ( 'NONE',  ( 0.0000000000000000000, 0.0000000000000000000, 1.000000000000000000 ) ) ;
#443 = CARTESIAN_POINT ( 'NONE',  ( -1.911053968455142000, 0.2170227994275001100, 1.000000000000000000 ) ) ;
#444 = MECHANICAL_DESIGN_GEOMETRIC_PRESENTATION_REPRESENTATION (  '', ( #66 ), #121 ) ;
#445 = VECTOR ( 'NONE', #442, 1000.000000000000000 ) ;
#446 = CARTESIAN_POINT ( 'NONE',  ( 1.236867777919314500, 1.740000000000000000, 1.034950000000000300 ) ) ;
#447 = CARTESIAN_POINT ( 'NONE',  ( -1.862148249456242700, 3.723100469095682000E-016, 1.000000000000000000 ) ) ;
#448 =( LENGTH_UNIT ( ) NAMED_UNIT ( * ) SI_UNIT ( .MILLI., .METRE. ) );
#449 = ADVANCED_FACE ( 'NONE', ( #182 ), #402, .F. ) ;
#450 = FILL_AREA_STYLE_COLOUR ( '', #131 ) ;
#451 = DIRECTION ( 'NONE',  ( -1.000000000000000000, 0.0000000000000000000, 0.0000000000000000000 ) ) ;
#452 = ORIENTED_EDGE ( 'NONE', *, *, #765, .T. ) ;
#453 = ORIENTED_EDGE ( 'NONE', *, *, #151, .F. ) ;
#454 =( GEOMETRIC_REPRESENTATION_CONTEXT ( 3 ) GLOBAL_UNCERTAINTY_ASSIGNED_CONTEXT ( ( #633 ) ) GLOBAL_UNIT_ASSIGNED_CONTEXT ( ( #395, #67, #141 ) ) REPRESENTATION_CONTEXT ( 'NONE', 'WORKASPACE' ) );
#455 = VECTOR ( 'NONE', #79, 1000.000000000000000 ) ;
#456 = CARTESIAN_POINT ( 'NONE',  ( -2.165083862849985300, -0.4616613288711140500, 0.9999999999999997800 ) ) ;
#457 = FACE_OUTER_BOUND ( 'NONE', #318, .T. ) ;
#458 = CARTESIAN_POINT ( 'NONE',  ( -1.624999999999999800, -1.705000000000000300, 0.03500000000000011400 ) ) ;
#459 = EDGE_CURVE ( 'NONE', #844, #858, #10, .T. ) ;
#460 = ORIENTED_EDGE ( 'NONE', *, *, #615, .F. ) ;
#461 = ADVANCED_FACE ( 'NONE', ( #422 ), #312, .F. ) ;
#462 = VERTEX_POINT ( 'NONE', #906 ) ;
#463 = ORIENTED_EDGE ( 'NONE', *, *, #718, .F. ) ;
#464 = ORIENTED_EDGE ( 'NONE', *, *, #1, .T. ) ;
#465 = CARTESIAN_POINT ( 'NONE',  ( 1.923886548195093100, -0.2609933293816423800, 1.598070447330070200E-017 ) ) ;
#466 = DIRECTION ( 'NONE',  ( 0.0000000000000000000, 0.0000000000000000000, 1.000000000000000000 ) ) ;
#467 = SURFACE_STYLE_FILL_AREA ( #418 ) ;
#468 = CARTESIAN_POINT ( 'NONE',  ( -1.862148249456242700, 3.723100469095682000E-016, 0.0000000000000000000 ) ) ;
#469 = CARTESIAN_POINT ( 'NONE',  ( 2.369999999999999700, 0.4999999999999985000, -7.653789711389857900E-018 ) ) ;
#470 = DIRECTION ( 'NONE',  ( -1.271791404675078700E-016, 1.000000000000000000, 0.0000000000000000000 ) ) ;
#471 = VECTOR ( 'NONE', #924, 1000.000000000000000 ) ;
#472 = CARTESIAN_POINT ( 'NONE',  ( -1.625000000000000400, 1.704999999999999400, 1.035000000000000100 ) ) ;
#473 = EDGE_CURVE ( 'NONE', #715, #305, #809, .T. ) ;
#474 = DIRECTION ( 'NONE',  ( 0.0000000000000000000, -0.0000000000000000000, 1.000000000000000000 ) ) ;
#475 = AXIS2_PLACEMENT_3D ( 'NONE', #931, #545, #84 ) ;
#476 = CARTESIAN_POINT ( 'NONE',  ( -1.862148249456242700, 0.1316462804460867800, 0.0000000000000000000 ) ) ;
#477 = ORIENTED_EDGE ( 'NONE', *, *, #734, .T. ) ;
#478 = ORIENTED_EDGE ( 'NONE', *, *, #164, .T. ) ;
#479 = SURFACE_STYLE_USAGE ( .BOTH. , #25 ) ;
#480 = ORIENTED_EDGE ( 'NONE', *, *, #707, .F. ) ;
#481 = CARTESIAN_POINT ( 'NONE',  ( 2.369999999999999700, 0.4999999999999986100, 1.000000000000000000 ) ) ;
#482 =( GEOMETRIC_REPRESENTATION_CONTEXT ( 3 ) GLOBAL_UNCERTAINTY_ASSIGNED_CONTEXT ( ( #383 ) ) GLOBAL_UNIT_ASSIGNED_CONTEXT ( ( #266, #39, #168 ) ) REPRESENTATION_CONTEXT ( 'NONE', 'WORKASPACE' ) );
#483 = CARTESIAN_POINT ( 'NONE',  ( 1.624999999999999800, 1.740000000000000200, 1.034900000000000400 ) ) ;
#484 = FACE_OUTER_BOUND ( 'NONE', #428, .T. ) ;
#485 = LINE ( 'NONE', #162, #42 ) ;
#486 = DIRECTION ( 'NONE',  ( -0.0000000000000000000, 1.000000000000000000, 0.0000000000000000000 ) ) ;
#487 =( LENGTH_UNIT ( ) NAMED_UNIT ( * ) SI_UNIT ( .MILLI., .METRE. ) );
#488 = DIRECTION ( 'NONE',  ( 0.0000000000000000000, -0.0000000000000000000, 1.000000000000000000 ) ) ;
#489 = ORIENTED_EDGE ( 'NONE', *, *, #779, .T. ) ;
#490 = EDGE_LOOP ( 'NONE', ( #332, #80, #310, #181 ) ) ;
#491 = ORIENTED_EDGE ( 'NONE', *, *, #959, .T. ) ;
#492 = FILL_AREA_STYLE ('',( #690 ) ) ;
#493 = PRESENTATION_STYLE_ASSIGNMENT (( #499 ) ) ;
#494 = PLANE ( 'NONE',  #531 ) ;
#495 = CARTESIAN_POINT ( 'NONE',  ( -2.115649523437431100, 0.4421846055549055700, 1.000000000000000200 ) ) ;
#496 = VECTOR ( 'NONE', #928, 1000.000000000000000 ) ;
#497 = CARTESIAN_POINT ( 'NONE',  ( 1.624999999999999800, -1.740000000000000200, 1.034900000000000400 ) ) ;
#498 = AXIS2_PLACEMENT_3D ( 'NONE', #742, #676, #669 ) ;
#499 = SURFACE_STYLE_USAGE ( .BOTH. , #337 ) ;
#500 = CARTESIAN_POINT ( 'NONE',  ( -1.625000000000000400, 1.740000000000000000, 1.035000000000000100 ) ) ;
#501 = ORIENTED_EDGE ( 'NONE', *, *, #256, .T. ) ;
#502 = ORIENTED_EDGE ( 'NONE', *, *, #753, .F. ) ;
#503 = DIRECTION ( 'NONE',  ( 1.000000000000000000, 0.0000000000000000000, 0.0000000000000000000 ) ) ;
#504 = CARTESIAN_POINT ( 'NONE',  ( 2.370000000000000100, 0.4999999999999987200, 1.000000000000000000 ) ) ;
#505 =( LENGTH_UNIT ( ) NAMED_UNIT ( * ) SI_UNIT ( .MILLI., .METRE. ) );
#506 = CARTESIAN_POINT ( 'NONE',  ( -2.364999999999999800, -1.704999999999999800, 0.0000000000000000000 ) ) ;
#507 = ORIENTED_EDGE ( 'NONE', *, *, #872, .F. ) ;
#508 = CARTESIAN_POINT ( 'NONE',  ( -2.365000000000000200, -0.5028517505437566400, 0.0000000000000000000 ) ) ;
#509 = AXIS2_PLACEMENT_3D ( 'NONE', #774, #323, #170 ) ;
#510 =( NAMED_UNIT ( * ) SI_UNIT ( $, .STERADIAN. ) SOLID_ANGLE_UNIT ( ) );
#511 = EDGE_CURVE ( 'NONE', #129, #388, #280, .T. ) ;
#512 = VERTEX_POINT ( 'NONE', #915 ) ;
#513 = ORIENTED_EDGE ( 'NONE', *, *, #872, .T. ) ;
#514 = ORIENTED_EDGE ( 'NONE', *, *, #670, .T. ) ;
#515 =( NAMED_UNIT ( * ) PLANE_ANGLE_UNIT ( ) SI_UNIT ( $, .RADIAN. ) );
#516 = CARTESIAN_POINT ( 'NONE',  ( 2.369999999999999700, -1.705000000000000100, 0.0000000000000000000 ) ) ;
#517 =( LENGTH_UNIT ( ) NAMED_UNIT ( * ) SI_UNIT ( .MILLI., .METRE. ) );
#518 = LINE ( 'NONE', #706, #432 ) ;
#519 = VERTEX_POINT ( 'NONE', #850 ) ;
#520 = MECHANICAL_DESIGN_GEOMETRIC_PRESENTATION_REPRESENTATION (  '', ( #697 ), #43 ) ;
#521 = FILL_AREA_STYLE_COLOUR ( '', #433 ) ;
#522 = EDGE_CURVE ( 'NONE', #844, #715, #238, .T. ) ;
#523 = ORIENTED_EDGE ( 'NONE', *, *, #959, .F. ) ;
#524 = ADVANCED_FACE ( 'NONE', ( #218 ), #861, .F. ) ;
#525 = EDGE_LOOP ( 'NONE', ( #684, #345, #639, #830 ) ) ;
#526 =( LENGTH_UNIT ( ) NAMED_UNIT ( * ) SI_UNIT ( .MILLI., .METRE. ) );
#527 = LINE ( 'NONE', #841, #235 ) ;
#528 = VECTOR ( 'NONE', #957, 1000.000000000000000 ) ;
#529 = AXIS2_PLACEMENT_3D ( 'NONE', #30, #177, #28 ) ;
#530 = SURFACE_STYLE_FILL_AREA ( #749 ) ;
#531 = AXIS2_PLACEMENT_3D ( 'NONE', #472, #692, #837 ) ;
#532 = CARTESIAN_POINT ( 'NONE',  ( -2.365000000000000200, 0.5028517505437579700, 1.000000000000000000 ) ) ;
#533 = CARTESIAN_POINT ( 'NONE',  ( 1.624999999999999800, 1.704999999999999800, 0.03500000000000009400 ) ) ;
#534 = ORIENTED_EDGE ( 'NONE', *, *, #7, .T. ) ;
#535 = VERTEX_POINT ( 'NONE', #17 ) ;
#536 = EDGE_LOOP ( 'NONE', ( #780, #878, #366, #119, #930, #165, #610 ) ) ;
#537 = ADVANCED_FACE ( 'NONE', ( #622 ), #175, .F. ) ;
#538 = PLANE ( 'NONE',  #251 ) ;
#539 = LINE ( 'NONE', #630, #111 ) ;
#540 = EDGE_CURVE ( 'NONE', #519, #674, #83, .T. ) ;
#541 = CARTESIAN_POINT ( 'NONE',  ( 1.624999999999999800, -1.704999999999999800, 0.03500000000000011400 ) ) ;
#542 = ADVANCED_FACE ( 'NONE', ( #205 ), #923, .F. ) ;
#543 = CARTESIAN_POINT ( 'NONE',  ( 1.870067097558552900, -0.06323239211413013400, 1.000000000000000000 ) ) ;
#544 = VERTEX_POINT ( 'NONE', #167 ) ;
#545 = DIRECTION ( 'NONE',  ( 1.000000000000000000, 2.543582809350158000E-016, -0.0000000000000000000 ) ) ;
#546 = ORIENTED_EDGE ( 'NONE', *, *, #358, .T. ) ;
#547 = ORIENTED_EDGE ( 'NONE', *, *, #54, .T. ) ;
#548 = CARTESIAN_POINT ( 'NONE',  ( -2.365000000000000200, -0.5028517505437564200, 1.000000000000000000 ) ) ;
#549 = PLANE ( 'NONE',  #559 ) ;
#550 = CARTESIAN_POINT ( 'NONE',  ( 1.624999999999999800, 1.740000000000000000, 0.03499999999999989200 ) ) ;
#551 = CARTESIAN_POINT ( 'NONE',  ( -2.364999999999999800, 1.704999999999999600, 1.000000000000000000 ) ) ;
#552 = DIRECTION ( 'NONE',  ( 2.543582809350158000E-016, -1.000000000000000000, 0.0000000000000000000 ) ) ;
#553 = CARTESIAN_POINT ( 'NONE',  ( -2.365000000000000200, 0.5028517505437580800, 0.0000000000000000000 ) ) ;
#554 = FILL_AREA_STYLE_COLOUR ( '', #148 ) ;
#555 = CARTESIAN_POINT ( 'NONE',  ( 1.236867777919314500, 1.740000000000000000, 1.034950000000000300 ) ) ;
#556 = CARTESIAN_POINT ( 'NONE',  ( -2.364999999999999800, -1.705000000000000100, 1.000000000000000000 ) ) ;
#557 = UNCERTAINTY_MEASURE_WITH_UNIT (LENGTH_MEASURE( 1.000000000000000100E-005 ), #526, 'distance_accuracy_value', 'NONE');
#558 = DIRECTION ( 'NONE',  ( -1.000000000000000000, 0.0000000000000000000, -0.0000000000000000000 ) ) ;
#559 = AXIS2_PLACEMENT_3D ( 'NONE', #926, #406, #831 ) ;
#560 = ORIENTED_EDGE ( 'NONE', *, *, #65, .T. ) ;
#561 = CARTESIAN_POINT ( 'NONE',  ( -2.102518094880397200, -0.4486578603624307200, -0.0000000000000000000 ) ) ;
#562 = DIRECTION ( 'NONE',  ( -0.0000000000000000000, 1.000000000000000000, 0.0000000000000000000 ) ) ;
#563 = EDGE_CURVE ( 'NONE', #405, #535, #527, .T. ) ;
#564 = B_SPLINE_CURVE_WITH_KNOTS ( 'NONE', 3,
 ( #270, #47, #198, #427, #578, #649, #733, #120, #833, #116, #233, #126, #793, #573, #543, #421, #805, #49, #653, #912, #875, #352, #57, #201, #572, #790, #883, #196, #209, #92 ),
 .UNSPECIFIED., .F., .F.,
 ( 4, 1, 2, 2, 2, 1, 2, 2, 2, 1, 2, 2, 2, 1, 2, 2, 4 ),
 ( 0.0000000000000000000, 0.06250000000000083300, 0.09375000000000084700, 0.1250000000000008600, 0.2500000000000001700, 0.3125000000000003900, 0.3437500000000004400, 0.3750000000000005600, 0.5000000000000010000, 0.5625000000000012200, 0.5937500000000013300, 0.6250000000000014400, 0.7500000000000020000, 0.8125000000000022200, 0.8437500000000020000, 0.8750000000000017800, 1.000000000000000000 ),
 .UNSPECIFIED. ) ;
#565 = ADVANCED_FACE ( 'NONE', ( #157 ), #253, .F. ) ;
#566 = FILL_AREA_STYLE ('',( #852 ) ) ;
#567 = AXIS2_PLACEMENT_3D ( 'NONE', #952, #581, #127 ) ;
#568 = DIRECTION ( 'NONE',  ( 0.0000000000000000000, 1.000000000000000000, 0.0000000000000000000 ) ) ;
#569 = MECHANICAL_DESIGN_GEOMETRIC_PRESENTATION_REPRESENTATION (  '', ( #951 ), #290 ) ;
#570 = ORIENTED_EDGE ( 'NONE', *, *, #16, .F. ) ;
#571 = ORIENTED_EDGE ( 'NONE', *, *, #734, .F. ) ;
#572 = CARTESIAN_POINT ( 'NONE',  ( 2.123959410811979700, 0.4356908025960957200, 1.000000000000000000 ) ) ;
#573 = CARTESIAN_POINT ( 'NONE',  ( 1.881769787604952600, -0.1252790931452882300, 1.000000000000000000 ) ) ;
#574 = VECTOR ( 'NONE', #847, 1000.000000000000000 ) ;
#575 = VECTOR ( 'NONE', #27, 1000.000000000000000 ) ;
#576 = CARTESIAN_POINT ( 'NONE',  ( -1.625000000000000400, 1.740000000000000000, -2.143061119189160500E-018 ) ) ;
#577 = FACE_OUTER_BOUND ( 'NONE', #490, .T. ) ;
#578 = CARTESIAN_POINT ( 'NONE',  ( 2.215728898092204500, -0.4758647284902121100, 1.000000000000000200 ) ) ;
#579 =( NAMED_UNIT ( * ) SI_UNIT ( $, .STERADIAN. ) SOLID_ANGLE_UNIT ( ) );
#580 = DIRECTION ( 'NONE',  ( 2.543582809350158000E-016, -1.000000000000000000, -0.0000000000000000000 ) ) ;
#581 = DIRECTION ( 'NONE',  ( 0.0000000000000000000, 0.0000000000000000000, 1.000000000000000000 ) ) ;
#582 = VERTEX_POINT ( 'NONE', #74 ) ;
#583 =( NAMED_UNIT ( * ) SI_UNIT ( $, .STERADIAN. ) SOLID_ANGLE_UNIT ( ) );
#584 = FACE_OUTER_BOUND ( 'NONE', #888, .T. ) ;
#585 = SURFACE_STYLE_FILL_AREA ( #236 ) ;
#586 = DIRECTION ( 'NONE',  ( 0.0000000000000000000, 0.0000000000000000000, 1.000000000000000000 ) ) ;
#587 = EDGE_CURVE ( 'NONE', #818, #844, #953, .T. ) ;
#588 = DIRECTION ( 'NONE',  ( -0.0000000000000000000, -0.0000000000000000000, -1.000000000000000000 ) ) ;
#589 = ORIENTED_EDGE ( 'NONE', *, *, #925, .T. ) ;
#590 = ORIENTED_EDGE ( 'NONE', *, *, #408, .T. ) ;
#591 = ORIENTED_EDGE ( 'NONE', *, *, #300, .T. ) ;
#592 = CARTESIAN_POINT ( 'NONE',  ( -2.364999999999999800, -1.705000000000000100, 0.0000000000000000000 ) ) ;
#593 = LINE ( 'NONE', #631, #338 ) ;
#594 = VERTEX_POINT ( 'NONE', #619 ) ;
#595 = LINE ( 'NONE', #124, #419 ) ;
#596 = CARTESIAN_POINT ( 'NONE',  ( -1.625000000000000400, 1.704999999999999400, 0.03499999999999987800 ) ) ;
#597 = COLOUR_RGB ( '',0.0000000000000000000, 0.7529411764705882200, 0.0000000000000000000 ) ;
#598 = AXIS2_PLACEMENT_3D ( 'NONE', #149, #683, #301 ) ;
#599 = DIRECTION ( 'NONE',  ( 1.000000000000000000, 0.0000000000000000000, 0.0000000000000000000 ) ) ;
#600 = MANIFOLD_SOLID_BREP ( 'NONE', #38 ) ;
#601 = DIRECTION ( 'NONE',  ( 0.0000000000000000000, 0.0000000000000000000, 1.000000000000000000 ) ) ;
#602 = ORIENTED_EDGE ( 'NONE', *, *, #204, .F. ) ;
#603 = CARTESIAN_POINT ( 'NONE',  ( 1.625000000000000000, -1.704999999999999800, 1.000000000000000000 ) ) ;
#604 = EDGE_LOOP ( 'NONE', ( #292, #274, #602, #357, #829 ) ) ;
#605 = PRESENTATION_LAYER_ASSIGNMENT (  '', '', ( #93 ) ) ;
#606 = PRESENTATION_STYLE_ASSIGNMENT (( #871 ) ) ;
#607 = EDGE_CURVE ( 'NONE', #794, #166, #876, .T. ) ;
#608 = VECTOR ( 'NONE', #613, 1000.000000000000000 ) ;
#609 = PRODUCT_DEFINITION ( 'UNKNOWN', '', #662, #206 ) ;
#610 = ORIENTED_EDGE ( 'NONE', *, *, #937, .F. ) ;
#611 = ADVANCED_FACE ( 'NONE', ( #682 ), #4, .T. ) ;
#612 = ORIENTED_EDGE ( 'NONE', *, *, #473, .T. ) ;
#613 = DIRECTION ( 'NONE',  ( 0.0000000000000000000, 0.0000000000000000000, 1.000000000000000000 ) ) ;
#614 = CARTESIAN_POINT ( 'NONE',  ( -1.862148249456242700, 3.723100469095682000E-016, 0.0000000000000000000 ) ) ;
#615 = EDGE_CURVE ( 'NONE', #535, #305, #825, .T. ) ;
#616 = CARTESIAN_POINT ( 'NONE',  ( -2.365000000000000700, 1.704999999999999800, 1.000000000000000000 ) ) ;
#617 = DIRECTION ( 'NONE',  ( 0.0000000000000000000, 0.0000000000000000000, -1.000000000000000000 ) ) ;
#618 = FACE_OUTER_BOUND ( 'NONE', #604, .T. ) ;
#619 = CARTESIAN_POINT ( 'NONE',  ( 2.370000000000000600, -1.704999999999999800, 0.0000000000000000000 ) ) ;
#620 = DIRECTION ( 'NONE',  ( -1.000000000000000000, 0.0000000000000000000, -0.0000000000000000000 ) ) ;
#621 = LINE ( 'NONE', #758, #95 ) ;
#622 = FACE_OUTER_BOUND ( 'NONE', #525, .T. ) ;
#623 = PLANE ( 'NONE',  #509 ) ;
#624 = CARTESIAN_POINT ( 'NONE',  ( -1.916342139637569500, 0.2624819051196040100, -0.0000000000000000000 ) ) ;
#625 =( NAMED_UNIT ( * ) PLANE_ANGLE_UNIT ( ) SI_UNIT ( $, .RADIAN. ) );
#626 = DIRECTION ( 'NONE',  ( 0.0000000000000000000, 0.0000000000000000000, 1.000000000000000000 ) ) ;
#627 = ORIENTED_EDGE ( 'NONE', *, *, #60, .T. ) ;
#628 = EDGE_CURVE ( 'NONE', #379, #544, #99, .T. ) ;
#629 = ORIENTED_EDGE ( 'NONE', *, *, #98, .T. ) ;
#630 = CARTESIAN_POINT ( 'NONE',  ( -2.364999999999999800, -1.705000000000000100, 1.000000000000000000 ) ) ;
#631 = CARTESIAN_POINT ( 'NONE',  ( 1.624999999999999800, 1.704999999999999800, 1.035000000000000100 ) ) ;
#632 = LINE ( 'NONE', #415, #863 ) ;
#633 = UNCERTAINTY_MEASURE_WITH_UNIT (LENGTH_MEASURE( 1.000000000000000100E-005 ), #395, 'distance_accuracy_value', 'NONE');
#634 = VECTOR ( 'NONE', #330, 1000.000000000000000 ) ;
#635 = CARTESIAN_POINT ( 'NONE',  ( -2.364999999999999800, -1.705000000000000100, 1.000000000000000000 ) ) ;
#636 = VECTOR ( 'NONE', #944, 1000.000000000000000 ) ;
#637 = LINE ( 'NONE', #596, #385 ) ;
#638 = ORIENTED_EDGE ( 'NONE', *, *, #204, .T. ) ;
#639 = ORIENTED_EDGE ( 'NONE', *, *, #903, .T. ) ;
#640 = EDGE_CURVE ( 'NONE', #686, #519, #637, .T. ) ;
#641 = EDGE_LOOP ( 'NONE', ( #365, #416, #502, #272 ) ) ;
#642 = EDGE_CURVE ( 'NONE', #388, #262, #435, .T. ) ;
#643 = CARTESIAN_POINT ( 'NONE',  ( -2.364999999999999800, -1.705000000000000100, 1.000000000000000000 ) ) ;
#644 = SURFACE_STYLE_USAGE ( .BOTH. , #37 ) ;
#645 = CARTESIAN_POINT ( 'NONE',  ( -1.873916941362711900, 0.1258207967453739700, 0.9999999999999997800 ) ) ;
#646 = VECTOR ( 'NONE', #22, 1000.000000000000000 ) ;
#647 = CARTESIAN_POINT ( 'NONE',  ( 2.369999999999999700, 1.704999999999999600, 0.0000000000000000000 ) ) ;
#648 = STYLED_ITEM ( 'NONE', ( #230 ), #694 ) ;
#649 = CARTESIAN_POINT ( 'NONE',  ( 2.201924472016223000, -0.4711981844829286600, 1.000000000000000000 ) ) ;
#650 = STYLED_ITEM ( 'NONE', ( #713 ), #174 ) ;
#651 = CARTESIAN_POINT ( 'NONE',  ( -1.862148249456242700, 3.723100469095682000E-016, 0.0000000000000000000 ) ) ;
#652 = EDGE_LOOP ( 'NONE', ( #232, #257, #110, #453 ) ) ;
#653 = CARTESIAN_POINT ( 'NONE',  ( 1.894105916327923500, 0.1541967279618234900, 0.9999999999999997800 ) ) ;
#654 = ORIENTED_EDGE ( 'NONE', *, *, #184, .T. ) ;
#655 = APPLICATION_PROTOCOL_DEFINITION ( 'draft international standard', 'automotive_design', 1998, #724 ) ;
#656 = CARTESIAN_POINT ( 'NONE',  ( -1.624999999999999800, 1.704999999999999800, 1.000000000000000000 ) ) ;
#657 = LINE ( 'NONE', #55, #297 ) ;
#658 = PRODUCT_CONTEXT ( 'NONE', #724, 'mechanical' ) ;
#659 = DIRECTION ( 'NONE',  ( -1.000000000000000000, -1.271791404675078700E-016, 0.0000000000000000000 ) ) ;
#660 = EDGE_CURVE ( 'NONE', #818, #143, #252, .T. ) ;
#661 = CARTESIAN_POINT ( 'NONE',  ( 1.236867777919314700, -1.740000000000000200, 1.034950000000000300 ) ) ;
#662 = PRODUCT_DEFINITION_FORMATION_WITH_SPECIFIED_SOURCE ( 'ANY', '', #117, .NOT_KNOWN. ) ;
#663 = ORIENTED_EDGE ( 'NONE', *, *, #607, .F. ) ;
#664 = ORIENTED_EDGE ( 'NONE', *, *, #587, .T. ) ;
#665 = VERTEX_POINT ( 'NONE', #12 ) ;
#666 = CARTESIAN_POINT ( 'NONE',  ( -2.033826716017917300, -0.3800187875942223100, 1.000000000000000400 ) ) ;
#667 = AXIS2_PLACEMENT_3D ( 'NONE', #144, #382, #599 ) ;
#668 = LINE ( 'NONE', #112, #21 ) ;
#669 = DIRECTION ( 'NONE',  ( 0.0000000000000000000, 1.000000000000000000, -6.123031769111886300E-017 ) ) ;
#670 = EDGE_CURVE ( 'NONE', #909, #212, #208, .T. ) ;
#671 = CARTESIAN_POINT ( 'NONE',  ( -1.952647559755465800, 0.2915667332038992500, 1.000000000000000200 ) ) ;
#672 = UNCERTAINTY_MEASURE_WITH_UNIT (LENGTH_MEASURE( 1.000000000000000100E-005 ), #517, 'distance_accuracy_value', 'NONE');
#673 = PRESENTATION_LAYER_ASSIGNMENT (  '', '', ( #868 ) ) ;
#674 = VERTEX_POINT ( 'NONE', #311 ) ;
#675 = EDGE_LOOP ( 'NONE', ( #390, #815, #958, #523 ) ) ;
#676 = DIRECTION ( 'NONE',  ( 0.0000000000000000000, -6.123031769111886300E-017, -1.000000000000000000 ) ) ;
#677 = EDGE_CURVE ( 'NONE', #246, #665, #412, .T. ) ;
#678 = CARTESIAN_POINT ( 'NONE',  ( -2.365000000000000200, -0.5028517505437569700, 1.000000000000000000 ) ) ;
#679 = VECTOR ( 'NONE', #261, 1000.000000000000000 ) ;
#680 = FACE_OUTER_BOUND ( 'NONE', #396, .T. ) ;
#681 = PRESENTATION_STYLE_ASSIGNMENT (( #644 ) ) ;
#682 = FACE_OUTER_BOUND ( 'NONE', #891, .T. ) ;
#683 = DIRECTION ( 'NONE',  ( 0.0000000000000000000, -1.000000000000000000, 0.0000000000000000000 ) ) ;
#684 = ORIENTED_EDGE ( 'NONE', *, *, #642, .F. ) ;
#685 = ORIENTED_EDGE ( 'NONE', *, *, #908, .T. ) ;
#686 = VERTEX_POINT ( 'NONE', #20 ) ;
#687 =( LENGTH_UNIT ( ) NAMED_UNIT ( * ) SI_UNIT ( .MILLI., .METRE. ) );
#688 = CARTESIAN_POINT ( 'NONE',  ( -1.624999999999999800, -1.740000000000000400, 0.03500000000000010700 ) ) ;
#689 = FACE_OUTER_BOUND ( 'NONE', #709, .T. ) ;
#690 = FILL_AREA_STYLE_COLOUR ( '', #76 ) ;
#691 =( GEOMETRIC_REPRESENTATION_CONTEXT ( 3 ) GLOBAL_UNCERTAINTY_ASSIGNED_CONTEXT ( ( #34 ) ) GLOBAL_UNIT_ASSIGNED_CONTEXT ( ( #687, #840, #242 ) ) REPRESENTATION_CONTEXT ( 'NONE', 'WORKASPACE' ) );
#692 = DIRECTION ( 'NONE',  ( 1.000000000000000000, 1.271791404675078700E-016, -0.0000000000000000000 ) ) ;
#693 = ORIENTED_EDGE ( 'NONE', *, *, #522, .T. ) ;
#694 = ADVANCED_FACE ( 'NONE', ( #159 ), #843, .T. ) ;
#695 = ORIENTED_EDGE ( 'NONE', *, *, #213, .F. ) ;
#696 = CARTESIAN_POINT ( 'NONE',  ( -2.365000000000000200, 3.724505513030829100E-016, 0.0000000000000000000 ) ) ;
#697 = STYLED_ITEM ( 'NONE', ( #882 ), #23 ) ;
#698 = CARTESIAN_POINT ( 'NONE',  ( -1.624999999999999800, -1.740000000000000200, 1.035000000000000100 ) ) ;
#699 = CARTESIAN_POINT ( 'NONE',  ( -1.625000000000000000, 1.704999999999999800, 1.000000000000000000 ) ) ;
#700 = UNCERTAINTY_MEASURE_WITH_UNIT (LENGTH_MEASURE( 1.000000000000000100E-005 ), #448, 'distance_accuracy_value', 'NONE');
#701 = PRESENTATION_STYLE_ASSIGNMENT (( #873 ) ) ;
#702 = CARTESIAN_POINT ( 'NONE',  ( -1.625000000000000400, 1.740000000000000000, 1.035000000000000100 ) ) ;
#703 = CARTESIAN_POINT ( 'NONE',  ( -2.365000000000000200, -1.705000000000000100, 0.0000000000000000000 ) ) ;
#704 = DIRECTION ( 'NONE',  ( 1.000000000000000000, 0.0000000000000000000, -0.0000000000000000000 ) ) ;
#705 = ORIENTED_EDGE ( 'NONE', *, *, #834, .F. ) ;
#706 = CARTESIAN_POINT ( 'NONE',  ( 2.369999999999999700, -1.705000000000000100, 1.000000000000000000 ) ) ;
#707 = EDGE_CURVE ( 'NONE', #130, #367, #821, .T. ) ;
#708 = ORIENTED_EDGE ( 'NONE', *, *, #16, .T. ) ;
#709 = EDGE_LOOP ( 'NONE', ( #828, #513, #389, #855, #404, #737, #202 ) ) ;
#710 = CARTESIAN_POINT ( 'NONE',  ( 1.624999999999999800, -1.704999999999999800, 0.03500000000000009400 ) ) ;
#711 = PRODUCT_RELATED_PRODUCT_CATEGORY ( 'part', '', ( #117 ) ) ;
#712 = CARTESIAN_POINT ( 'NONE',  ( -2.365000000000000700, 1.704999999999999800, 1.000000000000000000 ) ) ;
#713 = PRESENTATION_STYLE_ASSIGNMENT (( #378 ) ) ;
#714 = CARTESIAN_POINT ( 'NONE',  ( -1.984981212405782400, 0.3311732839820880600, 1.000000000000000000 ) ) ;
#715 = VERTEX_POINT ( 'NONE', #97 ) ;
#716 = ORIENTED_EDGE ( 'NONE', *, *, #885, .F. ) ;
#717 = EDGE_LOOP ( 'NONE', ( #283, #759, #359, #629, #590 ) ) ;
#718 = EDGE_CURVE ( 'NONE', #379, #356, #309, .T. ) ;
#719 = DIRECTION ( 'NONE',  ( -1.000000000000000000, -0.0000000000000000000, 0.0000000000000000000 ) ) ;
#720 =( GEOMETRIC_REPRESENTATION_CONTEXT ( 3 ) GLOBAL_UNCERTAINTY_ASSIGNED_CONTEXT ( ( #14 ) ) GLOBAL_UNIT_ASSIGNED_CONTEXT ( ( #962, #298, #583 ) ) REPRESENTATION_CONTEXT ( 'NONE', 'WORKASPACE' ) );
#721 = PLANE ( 'NONE',  #137 ) ;
#722 = DIRECTION ( 'NONE',  ( -0.0000000000000000000, -0.0000000000000000000, -1.000000000000000000 ) ) ;
#723 = LINE ( 'NONE', #592, #745 ) ;
#724 = APPLICATION_CONTEXT ( 'automotive_design' ) ;
#725 = VECTOR ( 'NONE', #822, 1000.000000000000000 ) ;
#726 = DIRECTION ( 'NONE',  ( -0.0000000000000000000, -1.000000000000000000, -0.0000000000000000000 ) ) ;
#727 = APPLICATION_PROTOCOL_DEFINITION ( 'draft international standard', 'automotive_design', 1998, #203 ) ;
#728 = VERTEX_POINT ( 'NONE', #94 ) ;
#729 = ORIENTED_EDGE ( 'NONE', *, *, #753, .T. ) ;
#730 = VERTEX_POINT ( 'NONE', #483 ) ;
#731 = UNCERTAINTY_MEASURE_WITH_UNIT (LENGTH_MEASURE( 1.000000000000000100E-005 ), #145, 'distance_accuracy_value', 'NONE');
#732 = LINE ( 'NONE', #370, #862 ) ;
#733 = CARTESIAN_POINT ( 'NONE',  ( 2.122065338030432200, -0.4396780147243690200, 1.000000000000000000 ) ) ;
#734 = EDGE_CURVE ( 'NONE', #367, #356, #133, .T. ) ;
#735 = CARTESIAN_POINT ( 'NONE',  ( -1.960636919741115800, -0.3066720730346065800, 1.000000000000000200 ) ) ;
#736 = ORIENTED_EDGE ( 'NONE', *, *, #563, .F. ) ;
#737 = ORIENTED_EDGE ( 'NONE', *, *, #115, .T. ) ;
#738 = ORIENTED_EDGE ( 'NONE', *, *, #801, .T. ) ;
#739 = SURFACE_STYLE_USAGE ( .BOTH. , #150 ) ;
#740 = DIRECTION ( 'NONE',  ( -0.0000000000000000000, -0.0000000000000000000, 1.000000000000000000 ) ) ;
#741 = LINE ( 'NONE', #869, #142 ) ;
#742 = CARTESIAN_POINT ( 'NONE',  ( -1.624999999999999800, 1.740000000000000000, 0.03499999999999989200 ) ) ;
#743 =( GEOMETRIC_REPRESENTATION_CONTEXT ( 3 ) GLOBAL_UNCERTAINTY_ASSIGNED_CONTEXT ( ( #557 ) ) GLOBAL_UNIT_ASSIGNED_CONTEXT ( ( #526, #941, #59 ) ) REPRESENTATION_CONTEXT ( 'NONE', 'WORKASPACE' ) );
#744 = CYLINDRICAL_SURFACE ( 'NONE', #423, 0.5000000000000000000 ) ;
#745 = VECTOR ( 'NONE', #128, 1000.000000000000000 ) ;
#746 = CARTESIAN_POINT ( 'NONE',  ( -2.058327926965385600, 0.4043630802588770700, 1.000000000000000200 ) ) ;
#747 = FILL_AREA_STYLE_COLOUR ( '', #299 ) ;
#748 = VERTEX_POINT ( 'NONE', #771 ) ;
#749 = FILL_AREA_STYLE ('',( #747 ) ) ;
#750 = VERTEX_POINT ( 'NONE', #699 ) ;
#751 = ORIENTED_EDGE ( 'NONE', *, *, #765, .F. ) ;
#752 = FILL_AREA_STYLE ('',( #521 ) ) ;
#753 = EDGE_CURVE ( 'NONE', #414, #665, #518, .T. ) ;
#754 = COLOUR_RGB ( '',0.0000000000000000000, 0.5019607843137254800, 0.0000000000000000000 ) ;
#755 = DIRECTION ( 'NONE',  ( 1.000000000000000000, 0.0000000000000000000, 0.0000000000000000000 ) ) ;
#756 = ORIENTED_EDGE ( 'NONE', *, *, #816, .T. ) ;
#757 = CARTESIAN_POINT ( 'NONE',  ( -2.364999999999999800, -1.705000000000000100, 0.0000000000000000000 ) ) ;
#758 = CARTESIAN_POINT ( 'NONE',  ( -2.364999999999999800, 1.704999999999999600, 0.0000000000000000000 ) ) ;
#759 = ORIENTED_EDGE ( 'NONE', *, *, #677, .F. ) ;
#760 = CARTESIAN_POINT ( 'NONE',  ( 1.625000000000000400, -1.740000000000000200, 0.03500000000000010000 ) ) ;
#761 = AXIS2_PLACEMENT_3D ( 'NONE', #783, #796, #219 ) ;
#762 = CARTESIAN_POINT ( 'NONE',  ( 2.369999999999999700, 1.704999999999999800, 1.000000000000000000 ) ) ;
#763 = CARTESIAN_POINT ( 'NONE',  ( -2.364999999999999800, -1.705000000000000100, 0.0000000000000000000 ) ) ;
#764 = FACE_OUTER_BOUND ( 'NONE', #264, .T. ) ;
#765 = EDGE_CURVE ( 'NONE', #594, #379, #341, .T. ) ;
#766 = VECTOR ( 'NONE', #474, 1000.000000000000000 ) ;
#767 = DIRECTION ( 'NONE',  ( 0.0000000000000000000, 0.0000000000000000000, 1.000000000000000000 ) ) ;
#768 = SURFACE_SIDE_STYLE ('',( #326 ) ) ;
#769 = DIRECTION ( 'NONE',  ( 1.000000000000000000, 0.0000000000000000000, -0.0000000000000000000 ) ) ;
#770 = CARTESIAN_POINT ( 'NONE',  ( 1.625000000000000200, -1.740000000000000200, 1.035000000000000100 ) ) ;
#771 = CARTESIAN_POINT ( 'NONE',  ( -1.862148249456242700, 3.723100469095682000E-016, 1.000000000000000000 ) ) ;
#772 = EDGE_CURVE ( 'NONE', #388, #512, #113, .T. ) ;
#773 = ORIENTED_EDGE ( 'NONE', *, *, #718, .T. ) ;
#774 = CARTESIAN_POINT ( 'NONE',  ( -2.364999999999999800, -1.705000000000000100, 1.000000000000000000 ) ) ;
#775 = DIRECTION ( 'NONE',  ( 1.000000000000000000, 0.0000000000000000000, -0.0000000000000000000 ) ) ;
#776 = ADVANCED_FACE ( 'NONE', ( #689 ), #32, .T. ) ;
#777 = DIRECTION ( 'NONE',  ( -0.0000000000000000000, -1.000000000000000000, 0.0000000000000000000 ) ) ;
#778 = ORIENTED_EDGE ( 'NONE', *, *, #54, .F. ) ;
#779 = EDGE_CURVE ( 'NONE', #130, #818, #87, .T. ) ;
#780 = ORIENTED_EDGE ( 'NONE', *, *, #563, .T. ) ;
#781 = ORIENTED_EDGE ( 'NONE', *, *, #473, .F. ) ;
#782 = AXIS2_PLACEMENT_3D ( 'NONE', #190, #108, #558 ) ;
#783 = CARTESIAN_POINT ( 'NONE',  ( 1.624999999999999800, -1.740000000000000200, 0.03500000000000011400 ) ) ;
#784 = MECHANICAL_DESIGN_GEOMETRIC_PRESENTATION_REPRESENTATION (  '', ( #648 ), #691 ) ;
#785 = VECTOR ( 'NONE', #285, 1000.000000000000000 ) ;
#786 = ORIENTED_EDGE ( 'NONE', *, *, #213, .T. ) ;
#787 = LINE ( 'NONE', #919, #109 ) ;
#788 = DIRECTION ( 'NONE',  ( -1.000000000000000000, -0.0000000000000000000, 0.0000000000000000000 ) ) ;
#789 = LINE ( 'NONE', #413, #63 ) ;
#790 = CARTESIAN_POINT ( 'NONE',  ( 2.154207224951480500, 0.4513711454787723300, 0.9999999999999997800 ) ) ;
#791 = EDGE_CURVE ( 'NONE', #938, #730, #632, .T. ) ;
#792 = CARTESIAN_POINT ( 'NONE',  ( -2.365000000000000200, 0.5028517505437579700, 0.0000000000000000000 ) ) ;
#793 = CARTESIAN_POINT ( 'NONE',  ( 1.910939864934743100, -0.1987394201898505000, 0.9999999999999997800 ) ) ;
#794 = VERTEX_POINT ( 'NONE', #712 ) ;
#795 = FILL_AREA_STYLE ('',( #277 ) ) ;
#796 = DIRECTION ( 'NONE',  ( 1.000000000000000000, -0.0000000000000000000, 0.0000000000000000000 ) ) ;
#797 = CARTESIAN_POINT ( 'NONE',  ( -1.624999999999999800, -1.705000000000000100, 1.000000000000000000 ) ) ;
#798 = UNCERTAINTY_MEASURE_WITH_UNIT (LENGTH_MEASURE( 1.000000000000000100E-005 ), #429, 'distance_accuracy_value', 'NONE');
#799 = CYLINDRICAL_SURFACE ( 'NONE', #667, 0.5028517505437577500 ) ;
#800 = LINE ( 'NONE', #328, #434 ) ;
#801 = EDGE_CURVE ( 'NONE', #582, #200, #268, .T. ) ;
#802 = COLOUR_RGB ( '',0.0000000000000000000, 0.7529411764705882200, 0.0000000000000000000 ) ;
#803 =( NAMED_UNIT ( * ) PLANE_ANGLE_UNIT ( ) SI_UNIT ( $, .RADIAN. ) );
#804 = ORIENTED_EDGE ( 'NONE', *, *, #670, .F. ) ;
#805 = CARTESIAN_POINT ( 'NONE',  ( 1.874329520819864700, 0.07833426244747809800, 1.000000000000000000 ) ) ;
#806 = AXIS2_PLACEMENT_3D ( 'NONE', #576, #77, #118 ) ;
#807 = LINE ( 'NONE', #550, #646 ) ;
#808 = DIRECTION ( 'NONE',  ( 0.0000000000000000000, 1.000000000000000000, 0.0000000000000000000 ) ) ;
#809 = LINE ( 'NONE', #26, #75 ) ;
#810 = EDGE_CURVE ( 'NONE', #262, #728, #789, .T. ) ;
#811 = CARTESIAN_POINT ( 'NONE',  ( -1.862148249456242700, 3.724505513030829100E-016, 0.0000000000000000000 ) ) ;
#812 = CARTESIAN_POINT ( 'NONE',  ( -2.365000000000000700, 1.704999999999999800, 1.000000000000000000 ) ) ;
#813 = AXIS2_PLACEMENT_3D ( 'NONE', #763, #100, #704 ) ;
#814 = EDGE_LOOP ( 'NONE', ( #756, #534, #231, #940, #751, #929 ) ) ;
#815 = ORIENTED_EDGE ( 'NONE', *, *, #368, .T. ) ;
#816 = EDGE_CURVE ( 'NONE', #143, #857, #668, .T. ) ;
#817 = CARTESIAN_POINT ( 'NONE',  ( 2.239100306100425500, -0.5000000000000013300, 3.061515884555943100E-017 ) ) ;
#818 = VERTEX_POINT ( 'NONE', #710 ) ;
#819 = EDGE_CURVE ( 'NONE', #282, #750, #400, .T. ) ;
#820 = FILL_AREA_STYLE_COLOUR ( '', #194 ) ;
#821 = LINE ( 'NONE', #250, #934 ) ;
#822 = DIRECTION ( 'NONE',  ( 1.271791404675078700E-016, -1.000000000000000000, 0.0000000000000000000 ) ) ;
#823 = VECTOR ( 'NONE', #86, 1000.000000000000000 ) ;
#824 = DIRECTION ( 'NONE',  ( 0.0000000000000000000, 0.0000000000000000000, -1.000000000000000000 ) ) ;
#825 = LINE ( 'NONE', #458, #455 ) ;
#826 = ADVANCED_FACE ( 'NONE', ( #870 ), #939, .F. ) ;
#827 = ORIENTED_EDGE ( 'NONE', *, *, #902, .T. ) ;
#828 = ORIENTED_EDGE ( 'NONE', *, *, #810, .T. ) ;
#829 = ORIENTED_EDGE ( 'NONE', *, *, #368, .F. ) ;
#830 = ORIENTED_EDGE ( 'NONE', *, *, #810, .F. ) ;
#831 = DIRECTION ( 'NONE',  ( 0.0000000000000000000, -0.0000000000000000000, -1.000000000000000000 ) ) ;
#832 = ADVANCED_FACE ( 'NONE', ( #457 ), #494, .F. ) ;
#833 = CARTESIAN_POINT ( 'NONE',  ( 1.992136915203147800, -0.3292960009661596900, 1.000000000000000200 ) ) ;
#834 = EDGE_CURVE ( 'NONE', #858, #462, #485, .T. ) ;
#835 = DIRECTION ( 'NONE',  ( -0.0000000000000000000, 0.0000000000000000000, 1.000000000000000000 ) ) ;
#836 = VECTOR ( 'NONE', #237, 1000.000000000000000 ) ;
#837 = DIRECTION ( 'NONE',  ( -1.271791404675078700E-016, 1.000000000000000000, 0.0000000000000000000 ) ) ;
#838 = LINE ( 'NONE', #643, #766 ) ;
#839 = VECTOR ( 'NONE', #107, 1000.000000000000000 ) ;
#840 =( NAMED_UNIT ( * ) PLANE_ANGLE_UNIT ( ) SI_UNIT ( $, .RADIAN. ) );
#841 = CARTESIAN_POINT ( 'NONE',  ( -1.624999999999999800, -1.740000000000000200, -1.016439536705160400E-016 ) ) ;
#842 = B_SPLINE_CURVE_WITH_KNOTS ( 'NONE', 3,
 ( #447, #361, #2, #211, #376, #281, #287, #735, #666, #961, #153, #430, #456, #139, #52, #678 ),
 .UNSPECIFIED., .F., .F.,
 ( 4, 1, 2, 2, 2, 1, 2, 2, 4 ),
 ( 0.0000000000000000000, 0.1250000000000001900, 0.1875000000000002800, 0.2500000000000003900, 0.5000000000000003300, 0.6250000000000003300, 0.6875000000000003300, 0.7500000000000002200, 1.000000000000000000 ),
 .UNSPECIFIED. ) ;
#843 = PLANE ( 'NONE',  #529 ) ;
#844 = VERTEX_POINT ( 'NONE', #760 ) ;
#845 = PRESENTATION_LAYER_ASSIGNMENT (  '', '', ( #951 ) ) ;
#846 = EDGE_LOOP ( 'NONE', ( #560, #778, #480, #489, #273 ) ) ;
#847 = DIRECTION ( 'NONE',  ( -0.0000000000000000000, 0.0000000000000000000, 1.000000000000000000 ) ) ;
#848 = LINE ( 'NONE', #71, #636 ) ;
#849 = ADVANCED_FACE ( 'NONE', ( #484 ), #907, .F. ) ;
#850 = CARTESIAN_POINT ( 'NONE',  ( -1.625000000000000400, 1.740000000000000000, 0.03499999999999987800 ) ) ;
#851 = CARTESIAN_POINT ( 'NONE',  ( 2.370000000000000600, -1.705000000000000100, 0.0000000000000000000 ) ) ;
#852 = FILL_AREA_STYLE_COLOUR ( '', #932 ) ;
#853 = EDGE_CURVE ( 'NONE', #305, #686, #800, .T. ) ;
#854 = ADVANCED_FACE ( 'NONE', ( #229 ), #409, .F. ) ;
#855 = ORIENTED_EDGE ( 'NONE', *, *, #267, .T. ) ;
#856 = DIRECTION ( 'NONE',  ( 2.543582809350158000E-016, -1.000000000000000000, -0.0000000000000000000 ) ) ;
#857 = VERTEX_POINT ( 'NONE', #319 ) ;
#858 = VERTEX_POINT ( 'NONE', #240 ) ;
#859 = CARTESIAN_POINT ( 'NONE',  ( -1.625000000000000400, 1.704999999999999400, 1.000000000000000000 ) ) ;
#860 = CARTESIAN_POINT ( 'NONE',  ( -1.926823464049375300, 0.2474427034660187400, 1.000000000000000000 ) ) ;
#861 = CYLINDRICAL_SURFACE ( 'NONE', #371, 0.5028517505437577500 ) ;
#862 = VECTOR ( 'NONE', #808, 1000.000000000000000 ) ;
#863 = VECTOR ( 'NONE', #36, 1000.000000000000000 ) ;
#864 = CARTESIAN_POINT ( 'NONE',  ( -1.624999999999999800, -1.705000000000000300, 0.03500000000000009400 ) ) ;
#865 = DIRECTION ( 'NONE',  ( 1.000000000000000000, 0.0000000000000000000, -0.0000000000000000000 ) ) ;
#866 = ORIENTED_EDGE ( 'NONE', *, *, #438, .F. ) ;
#867 = CARTESIAN_POINT ( 'NONE',  ( 2.370000000000000600, -1.705000000000000100, 1.000000000000000000 ) ) ;
#868 = STYLED_ITEM ( 'NONE', ( #353 ), #600 ) ;
#869 = CARTESIAN_POINT ( 'NONE',  ( -2.365000000000000700, 1.704999999999999800, 0.0000000000000000000 ) ) ;
#870 = FACE_OUTER_BOUND ( 'NONE', #911, .T. ) ;
#871 = SURFACE_STYLE_USAGE ( .BOTH. , #355 ) ;
#872 = EDGE_CURVE ( 'NONE', #728, #282, #539, .T. ) ;
#873 = SURFACE_STYLE_USAGE ( .BOTH. , #295 ) ;
#874 = SURFACE_STYLE_FILL_AREA ( #492 ) ;
#875 = CARTESIAN_POINT ( 'NONE',  ( 1.930321985275610400, 0.2479346619695723100, 1.000000000000000000 ) ) ;
#876 = LINE ( 'NONE', #812, #278 ) ;
#877 = ORIENTED_EDGE ( 'NONE', *, *, #607, .T. ) ;
#878 = ORIENTED_EDGE ( 'NONE', *, *, #60, .F. ) ;
#879 = FILL_AREA_STYLE ('',( #450 ) ) ;
#880 = EDGE_LOOP ( 'NONE', ( #729, #464, #437, #223, #477, #786 ) ) ;
#881 = SURFACE_STYLE_USAGE ( .BOTH. , #207 ) ;
#882 = PRESENTATION_STYLE_ASSIGNMENT (( #426 ) ) ;
#883 = CARTESIAN_POINT ( 'NONE',  ( 2.171217870070306900, 0.4590431756197492800, 0.9999999999999997800 ) ) ;
#884 = LINE ( 'NONE', #193, #307 ) ;
#885 = EDGE_CURVE ( 'NONE', #730, #582, #884, .T. ) ;
#886 = VECTOR ( 'NONE', #562, 1000.000000000000000 ) ;
#887 = SURFACE_SIDE_STYLE ('',( #158 ) ) ;
#888 = EDGE_LOOP ( 'NONE', ( #507, #222, #627, #136, #163 ) ) ;
#889 = ADVANCED_FACE ( 'NONE', ( #62 ), #538, .F. ) ;
#890 = PRESENTATION_LAYER_ASSIGNMENT (  '', '', ( #648 ) ) ;
#891 = EDGE_LOOP ( 'NONE', ( #664, #693, #612, #343, #138, #638, #738, #589 ) ) ;
#892 = PLANE ( 'NONE',  #598 ) ;
#893 = FILL_AREA_STYLE ('',( #554 ) ) ;
#894 = PRESENTATION_LAYER_ASSIGNMENT (  '', '', ( #697 ) ) ;
#895 = PRESENTATION_STYLE_ASSIGNMENT (( #259 ) ) ;
#896 = CARTESIAN_POINT ( 'NONE',  ( 1.624999999999999800, 1.704999999999999800, 1.035000000000000100 ) ) ;
#897 = ORIENTED_EDGE ( 'NONE', *, *, #937, .T. ) ;
#898 = SURFACE_SIDE_STYLE ('',( #922 ) ) ;
#899 = VECTOR ( 'NONE', #865, 1000.000000000000000 ) ;
#900 = PLANE ( 'NONE',  #761 ) ;
#901 = SURFACE_STYLE_USAGE ( .BOTH. , #898 ) ;
#902 = EDGE_CURVE ( 'NONE', #938, #462, #949, .T. ) ;
#903 = EDGE_CURVE ( 'NONE', #512, #728, #838, .T. ) ;
#904 = VECTOR ( 'NONE', #407, 1000.000000000000000 ) ;
#905 = FILL_AREA_STYLE_COLOUR ( '', #802 ) ;
#906 = CARTESIAN_POINT ( 'NONE',  ( 1.236867777919314700, -1.740000000000000200, 1.034950000000000300 ) ) ;
#907 = PLANE ( 'NONE',  #101 ) ;
#908 = EDGE_CURVE ( 'NONE', #334, #674, #732, .T. ) ;
#909 = VERTEX_POINT ( 'NONE', #792 ) ;
#910 = CARTESIAN_POINT ( 'NONE',  ( 1.236867777919314900, -0.5800000000000001800, 1.034900000000000400 ) ) ;
#911 = EDGE_LOOP ( 'NONE', ( #571, #547, #452, #773 ) ) ;
#912 = CARTESIAN_POINT ( 'NONE',  ( 1.898801815517078500, 0.1680755279837759800, 0.9999999999999997800 ) ) ;
#913 = CARTESIAN_POINT ( 'NONE',  ( 1.870000000000000100, -0.1308996938995759500, 8.015029843141169000E-018 ) ) ;
#914 = ADVANCED_FACE ( 'NONE', ( #171 ), #176, .T. ) ;
#915 = CARTESIAN_POINT ( 'NONE',  ( -2.365000000000000200, -1.705000000000000100, 0.0000000000000000000 ) ) ;
#916 =( GEOMETRIC_REPRESENTATION_CONTEXT ( 3 ) GLOBAL_UNCERTAINTY_ASSIGNED_CONTEXT ( ( #700 ) ) GLOBAL_UNIT_ASSIGNED_CONTEXT ( ( #448, #296, #380 ) ) REPRESENTATION_CONTEXT ( 'NONE', 'WORKASPACE' ) );
#917 = CARTESIAN_POINT ( 'NONE',  ( 1.625000000000000200, -1.704999999999999800, 1.035000000000000100 ) ) ;
#918 = SURFACE_STYLE_FILL_AREA ( #795 ) ;
#919 = CARTESIAN_POINT ( 'NONE',  ( -1.624999999999999800, 1.740000000000000000, 0.03499999999999989200 ) ) ;
#920 = FACE_OUTER_BOUND ( 'NONE', #293, .T. ) ;
#921 =( GEOMETRIC_REPRESENTATION_CONTEXT ( 3 ) GLOBAL_UNCERTAINTY_ASSIGNED_CONTEXT ( ( #178 ) ) GLOBAL_UNIT_ASSIGNED_CONTEXT ( ( #505, #51, #579 ) ) REPRESENTATION_CONTEXT ( 'NONE', 'WORKASPACE' ) );
#922 = SURFACE_STYLE_FILL_AREA ( #893 ) ;
#923 = PLANE ( 'NONE',  #813 ) ;
#924 = DIRECTION ( 'NONE',  ( -0.0000000000000000000, 1.000000000000000000, 0.0000000000000000000 ) ) ;
#925 = EDGE_CURVE ( 'NONE', #200, #818, #807, .T. ) ;
#926 = CARTESIAN_POINT ( 'NONE',  ( -2.365000000000000700, 1.704999999999999800, 1.000000000000000000 ) ) ;
#927 = STYLED_ITEM ( 'NONE', ( #681 ), #854 ) ;
#928 = DIRECTION ( 'NONE',  ( 0.0000000000000000000, -1.000000000000000000, -0.0000000000000000000 ) ) ;
#929 = ORIENTED_EDGE ( 'NONE', *, *, #65, .F. ) ;
#930 = ORIENTED_EDGE ( 'NONE', *, *, #358, .F. ) ;
#931 = CARTESIAN_POINT ( 'NONE',  ( -2.365000000000000700, 1.704999999999999800, 1.000000000000000000 ) ) ;
#932 = COLOUR_RGB ( '',0.0000000000000000000, 0.7529411764705882200, 0.0000000000000000000 ) ;
#933 = DIRECTION ( 'NONE',  ( -1.000000000000000000, -2.543582809350158000E-016, 0.0000000000000000000 ) ) ;
#934 = VECTOR ( 'NONE', #775, 1000.000000000000000 ) ;
#935 = DIRECTION ( 'NONE',  ( 2.543582809350158000E-016, -1.000000000000000000, 0.0000000000000000000 ) ) ;
#936 = CARTESIAN_POINT ( 'NONE',  ( 1.624999999999999800, 1.704999999999999800, 1.035000000000000100 ) ) ;
#937 = EDGE_CURVE ( 'NONE', #405, #166, #621, .T. ) ;
#938 = VERTEX_POINT ( 'NONE', #555 ) ;
#939 = PLANE ( 'NONE',  #70 ) ;
#940 = ORIENTED_EDGE ( 'NONE', *, *, #628, .F. ) ;
#941 =( NAMED_UNIT ( * ) PLANE_ANGLE_UNIT ( ) SI_UNIT ( $, .RADIAN. ) );
#942 = EDGE_CURVE ( 'NONE', #282, #305, #398, .T. ) ;
#943 = PRESENTATION_LAYER_ASSIGNMENT (  '', '', ( #66 ) ) ;
#944 = DIRECTION ( 'NONE',  ( -0.0000000000000000000, -0.0000000000000000000, -1.000000000000000000 ) ) ;
#945 = SURFACE_STYLE_FILL_AREA ( #424 ) ;
#946 = VECTOR ( 'NONE', #719, 1000.000000000000000 ) ;
#947 = CARTESIAN_POINT ( 'NONE',  ( -2.365000000000000200, 0.5028517505437579700, 0.0000000000000000000 ) ) ;
#948 = ORIENTED_EDGE ( 'NONE', *, *, #267, .F. ) ;
#949 = B_SPLINE_CURVE_WITH_KNOTS ( 'NONE', 3,
 ( #446, #393, #910, #661 ),
 .UNSPECIFIED., .F., .F.,
 ( 4, 4 ),
 ( 0.0000000000000000000, 1.000000000000000000 ),
 .UNSPECIFIED. ) ;
#950 = FACE_OUTER_BOUND ( 'NONE', #652, .T. ) ;
#951 = STYLED_ITEM ( 'NONE', ( #701 ), #140 ) ;
#952 = CARTESIAN_POINT ( 'NONE',  ( 0.0000000000000000000, 0.0000000000000000000, 0.0000000000000000000 ) ) ;
#953 = LINE ( 'NONE', #533, #725 ) ;
#954 = FILL_AREA_STYLE_COLOUR ( '', #754 ) ;
#955 =( NAMED_UNIT ( * ) PLANE_ANGLE_UNIT ( ) SI_UNIT ( $, .RADIAN. ) );
#956 = DIRECTION ( 'NONE',  ( 1.271791404675078700E-016, -1.000000000000000000, 0.0000000000000000000 ) ) ;
#957 = DIRECTION ( 'NONE',  ( -0.0000000000000000000, 0.0000000000000000000, -1.000000000000000000 ) ) ;
#958 = ORIENTED_EDGE ( 'NONE', *, *, #908, .F. ) ;
#959 = EDGE_CURVE ( 'NONE', #462, #334, #85, .T. ) ;
#960 = CARTESIAN_POINT ( 'NONE',  ( -1.624999999999999800, -1.740000000000000200, 1.035000000000000100 ) ) ;
#961 = CARTESIAN_POINT ( 'NONE',  ( -2.073433266796109700, -0.4123524402445429300, 1.000000000000000000 ) ) ;
#962 =( LENGTH_UNIT ( ) NAMED_UNIT ( * ) SI_UNIT ( .MILLI., .METRE. ) );
ENDSEC;
END-ISO-10303-21;
