EESchema Schematic File Version 4
LIBS:eLoad-cache
EELAYER 26 0
EELAYER END
$Descr USLetter 11000 8500
encoding utf-8
Sheet 1 6
Title "Main Page"
Date "2018-08-10"
Rev "0.1"
Comp "Peter Yin"
Comment1 ""
Comment2 ""
Comment3 ""
Comment4 ""
$EndDescr
$Sheet
S 2550 2700 1650 500 
U 5B5FBC03
F0 "Communication" 50
F1 "comm.sch" 50
F2 "FTDI_MCU_RXD" I R 4200 2900 50 
F3 "FTDI_MCU_TXD" O R 4200 3000 50 
$EndSheet
$Sheet
S 5300 750  1650 4700
U 5B5FBC06
F0 "MCU" 50
F1 "mcu.sch" 50
F2 "MCU_FTDI_TX" O L 5300 2900 50 
F3 "MCU_FTDI_RX" I L 5300 3000 50 
F4 "RS_SW" O R 6950 1000 50 
F5 "I_SET" O R 6950 1150 50 
F6 "I_SENSE" I R 6950 1300 50 
F7 "V_SENSE" I R 6950 1400 50 
F8 "MCU_SD_SCK" O R 6950 3200 50 
F9 "MCU_SD_MISO" I R 6950 3400 50 
F10 "MCU_SD_MOSI" O R 6950 3300 50 
F11 "MCU_SD_CS" O R 6950 3500 50 
F12 "MCU_SD_DET" I R 6950 3600 50 
F13 "FAN_SW" O R 6950 2100 50 
F14 "TEMP_SENSE" I R 6950 2500 50 
F15 "I2C_SCL" B R 6950 3800 50 
F16 "I2C_SDA" B R 6950 3900 50 
F17 "FAN_TACH" I R 6950 2200 50 
F18 "+5V0_EN" O L 5300 1350 50 
F19 "FAN_PWM" O R 6950 2300 50 
$EndSheet
$Sheet
S 8500 750  1600 850 
U 5B5FBD8A
F0 "Load" 50
F1 "load.sch" 50
F2 "V_SENSE" O L 8500 1400 50 
F3 "RS_SW" I L 8500 1000 50 
F4 "I_SET" I L 8500 1150 50 
F5 "I_SENSE" O L 8500 1300 50 
$EndSheet
$Sheet
S 2550 750  1650 1450
U 5B6C0220
F0 "Power" 50
F1 "power.sch" 50
F2 "+5V0_EN" I R 4200 1350 50 
$EndSheet
$Sheet
S 8500 1950 1550 2150
U 5BCDC4C3
F0 "Peripherals" 50
F1 "peripherals.sch" 50
F2 "TEMP_SENSE" O L 8500 2500 50 
F3 "FAN_SW" I L 8500 2100 50 
F4 "SD_MCU_SCK" I L 8500 3200 50 
F5 "SD_MCU_DI" I L 8500 3300 50 
F6 "SD_MCU_DO" O L 8500 3400 50 
F7 "SD_MCU_CS" I L 8500 3500 50 
F8 "SD_MCU_DET" O L 8500 3600 50 
F9 "I2C_SDA" B L 8500 3900 50 
F10 "I2C_SCL" B L 8500 3800 50 
F11 "FAN_TACH" O L 8500 2200 50 
F12 "FAN_PWM" I L 8500 2300 50 
$EndSheet
Wire Wire Line
	8500 1000 6950 1000
Wire Wire Line
	6950 1150 8500 1150
Wire Wire Line
	8500 1300 6950 1300
Wire Wire Line
	6950 1400 8500 1400
Wire Wire Line
	6950 2100 8500 2100
Wire Wire Line
	8500 2500 6950 2500
Wire Wire Line
	8500 3200 6950 3200
Wire Wire Line
	6950 3300 8500 3300
Wire Wire Line
	6950 3400 8500 3400
Wire Wire Line
	6950 3500 8500 3500
Wire Wire Line
	6950 3900 8500 3900
Wire Wire Line
	8500 3800 6950 3800
Wire Wire Line
	4200 2900 5300 2900
Wire Wire Line
	5300 3000 4200 3000
Wire Wire Line
	6950 3600 8500 3600
Wire Notes Line width 50 style solid
	1050 5100 4050 5100
Wire Notes Line width 50 style solid
	4050 5100 4050 7100
Wire Notes Line width 50 style solid
	4050 7100 1050 7100
Wire Notes Line width 50 style solid
	1050 7100 1050 5100
Wire Wire Line
	6950 2200 8500 2200
Wire Wire Line
	5300 1350 4200 1350
Wire Wire Line
	6950 2300 8500 2300
$Comp
L eload:MountingHole_Pad MH101
U 1 1 5B8F745E
P 1200 5300
F 0 "MH101" H 1300 5351 50  0000 L CNN
F 1 "M3" H 1300 5260 50  0000 L CNN
F 2 "eload_fp:MountingHole_3.2mm_M3_Pad" H 1200 5300 50  0001 C CNN
F 3 "~" H 1200 5300 50  0001 C CNN
	1    1200 5300
	1    0    0    -1  
$EndComp
$Comp
L eload:MountingHole_Pad MH102
U 1 1 5B8F7651
P 2600 5300
F 0 "MH102" H 2700 5351 50  0000 L CNN
F 1 "M3" H 2700 5260 50  0000 L CNN
F 2 "eload_fp:MountingHole_3.2mm_M3_Pad" H 2600 5300 50  0001 C CNN
F 3 "~" H 2600 5300 50  0001 C CNN
	1    2600 5300
	1    0    0    -1  
$EndComp
$Comp
L eload:MountingHole_Pad MH103
U 1 1 5B8F7693
P 1200 6350
F 0 "MH103" H 1100 6308 50  0000 R CNN
F 1 "M3" H 1100 6399 50  0000 R CNN
F 2 "eload_fp:MountingHole_3.2mm_M3_Pad" H 1200 6350 50  0001 C CNN
F 3 "~" H 1200 6350 50  0001 C CNN
	1    1200 6350
	-1   0    0    1   
$EndComp
$Comp
L eload:MountingHole_Pad MH104
U 1 1 5B8F76C1
P 2600 6350
F 0 "MH104" H 2500 6308 50  0000 R CNN
F 1 "M3" H 2500 6399 50  0000 R CNN
F 2 "eload_fp:MountingHole_3.2mm_M3_Pad" H 2600 6350 50  0001 C CNN
F 3 "~" H 2600 6350 50  0001 C CNN
	1    2600 6350
	-1   0    0    1   
$EndComp
$Comp
L eload:C C101
U 1 1 5B8F89FF
P 1200 5600
F 0 "C101" H 1315 5646 50  0000 L CNN
F 1 "C" H 1315 5555 50  0000 L CNN
F 2 "Capacitor_SMD:C_1206_3216Metric" H 1238 5450 50  0001 C CNN
F 3 "~" H 1200 5600 50  0001 C CNN
	1    1200 5600
	1    0    0    -1  
$EndComp
$Comp
L eload:C C103
U 1 1 5B8F8B0C
P 1200 6050
F 0 "C103" H 1315 6096 50  0000 L CNN
F 1 "C" H 1315 6005 50  0000 L CNN
F 2 "Capacitor_SMD:C_1206_3216Metric" H 1238 5900 50  0001 C CNN
F 3 "~" H 1200 6050 50  0001 C CNN
	1    1200 6050
	1    0    0    -1  
$EndComp
$Comp
L eload:C C102
U 1 1 5B8F90DB
P 2600 5600
F 0 "C102" H 2715 5646 50  0000 L CNN
F 1 "C" H 2715 5555 50  0000 L CNN
F 2 "Capacitor_SMD:C_1206_3216Metric" H 2638 5450 50  0001 C CNN
F 3 "~" H 2600 5600 50  0001 C CNN
	1    2600 5600
	1    0    0    -1  
$EndComp
$Comp
L eload:GNDD #PWR0117
U 1 1 5B8F95F1
P 1650 5850
F 0 "#PWR0117" H 1650 5600 50  0001 C CNN
F 1 "GNDD" H 1655 5677 50  0000 C CNN
F 2 "" H 1650 5850 50  0001 C CNN
F 3 "" H 1650 5850 50  0001 C CNN
	1    1650 5850
	1    0    0    -1  
$EndComp
$Comp
L eload:GNDD #PWR0118
U 1 1 5B8F9631
P 2600 5800
F 0 "#PWR0118" H 2600 5550 50  0001 C CNN
F 1 "GNDD" H 2605 5627 50  0000 C CNN
F 2 "" H 2600 5800 50  0001 C CNN
F 3 "" H 2600 5800 50  0001 C CNN
	1    2600 5800
	1    0    0    -1  
$EndComp
Wire Wire Line
	1200 5400 1200 5450
Wire Wire Line
	1200 5750 1200 5800
Wire Wire Line
	1200 6200 1200 6250
Wire Wire Line
	2600 5450 2600 5400
Wire Wire Line
	2600 5750 2600 5800
Connection ~ 1200 5800
Wire Wire Line
	1200 5800 1200 5900
Wire Wire Line
	1650 5800 1650 5850
Wire Wire Line
	1200 5800 1650 5800
NoConn ~ 2600 6250
$EndSCHEMATC
